﻿
DisplayName "Grand Noah"



EVENT   1
 PAGE   1
  If(1,1052,0,0,0)
   205(-1,bytes(0x04,0x08,0x6f,0x3a,0x13,0x52,0x50,0x47,0x3a,0x3a,0x4d,0x6f,0x76,0x65,0x52,0x6f,0x75,0x74,0x65,0x09,0x3a,0x0c,0x40,0x72,0x65,0x70,0x65,0x61,0x74,0x46,0x3a,0x0f,0x40,0x73,0x6b,0x69,0x70,0x70,0x61,0x62,0x6c,0x65,0x46,0x3a,0x0a,0x40,0x77,0x61,0x69,0x74,0x54,0x3a,0x0a,0x40,0x6c,0x69,0x73,0x74,0x5b,0x07,0x6f,0x3a,0x15,0x52,0x50,0x47,0x3a,0x3a,0x4d,0x6f,0x76,0x65,0x43,0x6f,0x6d,0x6d,0x61,0x6e,0x64,0x07,0x3a,0x0a,0x40,0x63,0x6f,0x64,0x65,0x69,0x16,0x3a,0x10,0x40,0x70,0x61,0x72,0x61,0x6d,0x65,0x74,0x65,0x72,0x73,0x5b,0x00,0x6f,0x3b,0x0a,0x07,0x3b,0x0b,0x69,0x00,0x3b,0x0c,0x5b,0x00))
   ShowMessageFace("",0,0,2,1)
   ShowMessage("\\n<衛兵Ａ>Halt, travelers.")
   ShowMessageFace("",0,0,2,2)
   ShowMessage("\\n<衛兵Ｂ>Entry to the royal palace is under wartime restrictions right now. Tours are forbidden, and audiences with Her Majesty are not being granted.")
   If(1,1028,0,8,1)
    ShowMessageFace("sara_fc1",4,0,2,3)
    ShowMessage("\\n<Sara>I didn't want to do this, but the situation being as it is...")
    ShowMessageFace("sara_fc1",2,0,2,4)
    ShowMessage("\\n<Sara>I am Sara, Former Queen of Sabasa. I have traveled here under complete secrecy to speak with Her Majesty, the Queen.")
    ShowMessageFace("",0,0,2,5)
    ShowMessage("\\n<衛兵Ａ>Huh? Sara, the Former Queen of Sabasa?\nPardon me, but may I see your royal emblem?")
    ShowMessageFace("",0,0,2,6)
    ShowMessage("\\n<衛兵Ｂ>...this is definitely genuine!\nForgive me. Please, this way.")
    ChangeVariable(1052,1052,0,0,1)
    0()
   Else()
    205(-1,bytes(0x04,0x08,0x6f,0x3a,0x13,0x52,0x50,0x47,0x3a,0x3a,0x4d,0x6f,0x76,0x65,0x52,0x6f,0x75,0x74,0x65,0x09,0x3a,0x0c,0x40,0x72,0x65,0x70,0x65,0x61,0x74,0x46,0x3a,0x0f,0x40,0x73,0x6b,0x69,0x70,0x70,0x61,0x62,0x6c,0x65,0x46,0x3a,0x0a,0x40,0x77,0x61,0x69,0x74,0x54,0x3a,0x0a,0x40,0x6c,0x69,0x73,0x74,0x5b,0x07,0x6f,0x3a,0x15,0x52,0x50,0x47,0x3a,0x3a,0x4d,0x6f,0x76,0x65,0x43,0x6f,0x6d,0x6d,0x61,0x6e,0x64,0x07,0x3a,0x0a,0x40,0x63,0x6f,0x64,0x65,0x69,0x06,0x3a,0x10,0x40,0x70,0x61,0x72,0x61,0x6d,0x65,0x74,0x65,0x72,0x73,0x5b,0x00,0x6f,0x3b,0x0a,0x07,0x3b,0x0b,0x69,0x00,0x3b,0x0c,0x5b,0x00))
    ShowMessageFace("ruka_fc1",0,0,2,7)
    ShowMessage("\\n<Luka>It doesn't look like we'll be able to get an audience with the queen any time soon...")
    If(0,4,0)
     ShowMessageFace("alice_fc5",0,0,2,8)
     ShowMessage("\\n<Alice>We can't get an audience if he just sees us as travelers. Perhaps we can borrow the services of a noble from another country...")
     0()
    EndIf()
    If(0,5,0)
     ShowMessageFace("iriasu_fc4",2,0,2,9)
     ShowMessage("\\n<Ilias>Turning me away at the gates is the pinnacle of rudeness. Let's bring a noble from another country and make an appeal to authority.")
     0()
    EndIf()
    EndEventProcessing()
    0()
   EndIf()
   0()
  EndIf()
  281(0)
  250(bytes(0x04,0x08,0x6f,0x3a,0x0c,0x52,0x50,0x47,0x3a,0x3a,0x53,0x45,0x08,0x3a,0x0a,0x40,0x6e,0x61,0x6d,0x65,0x49,0x22,0x0a,0x4f,0x70,0x65,0x6e,0x31,0x06,0x3a,0x06,0x45,0x54,0x3a,0x0b,0x40,0x70,0x69,0x74,0x63,0x68,0x69,0x69,0x3a,0x0c,0x40,0x76,0x6f,0x6c,0x75,0x6d,0x65,0x69,0x55))
  205(0,bytes(0x04,0x08,0x6f,0x3a,0x13,0x52,0x50,0x47,0x3a,0x3a,0x4d,0x6f,0x76,0x65,0x52,0x6f,0x75,0x74,0x65,0x09,0x3a,0x0c,0x40,0x72,0x65,0x70,0x65,0x61,0x74,0x46,0x3a,0x0f,0x40,0x73,0x6b,0x69,0x70,0x70,0x61,0x62,0x6c,0x65,0x46,0x3a,0x0a,0x40,0x77,0x61,0x69,0x74,0x54,0x3a,0x0a,0x40,0x6c,0x69,0x73,0x74,0x5b,0x0c,0x6f,0x3a,0x15,0x52,0x50,0x47,0x3a,0x3a,0x4d,0x6f,0x76,0x65,0x43,0x6f,0x6d,0x6d,0x61,0x6e,0x64,0x07,0x3a,0x0a,0x40,0x63,0x6f,0x64,0x65,0x69,0x16,0x3a,0x10,0x40,0x70,0x61,0x72,0x61,0x6d,0x65,0x74,0x65,0x72,0x73,0x5b,0x00,0x6f,0x3b,0x0a,0x07,0x3b,0x0b,0x69,0x14,0x3b,0x0c,0x5b,0x06,0x69,0x08,0x6f,0x3b,0x0a,0x07,0x3b,0x0b,0x69,0x17,0x3b,0x0c,0x5b,0x00,0x6f,0x3b,0x0a,0x07,0x3b,0x0b,0x69,0x14,0x3b,0x0c,0x5b,0x06,0x69,0x08,0x6f,0x3b,0x0a,0x07,0x3b,0x0b,0x69,0x18,0x3b,0x0c,0x5b,0x00,0x6f,0x3b,0x0a,0x07,0x3b,0x0b,0x69,0x2a,0x3b,0x0c,0x5b,0x00,0x6f,0x3b,0x0a,0x07,0x3b,0x0b,0x69,0x00,0x3b,0x0c,0x5b,0x00))
  205(-1,bytes(0x04,0x08,0x6f,0x3a,0x13,0x52,0x50,0x47,0x3a,0x3a,0x4d,0x6f,0x76,0x65,0x52,0x6f,0x75,0x74,0x65,0x09,0x3a,0x0c,0x40,0x72,0x65,0x70,0x65,0x61,0x74,0x46,0x3a,0x0f,0x40,0x73,0x6b,0x69,0x70,0x70,0x61,0x62,0x6c,0x65,0x54,0x3a,0x0a,0x40,0x77,0x61,0x69,0x74,0x54,0x3a,0x0a,0x40,0x6c,0x69,0x73,0x74,0x5b,0x07,0x6f,0x3a,0x15,0x52,0x50,0x47,0x3a,0x3a,0x4d,0x6f,0x76,0x65,0x43,0x6f,0x6d,0x6d,0x61,0x6e,0x64,0x07,0x3a,0x0a,0x40,0x63,0x6f,0x64,0x65,0x69,0x11,0x3a,0x10,0x40,0x70,0x61,0x72,0x61,0x6d,0x65,0x74,0x65,0x72,0x73,0x5b,0x00,0x6f,0x3b,0x0a,0x07,0x3b,0x0b,0x69,0x00,0x3b,0x0c,0x5b,0x00))
  250(bytes(0x04,0x08,0x6f,0x3a,0x0c,0x52,0x50,0x47,0x3a,0x3a,0x53,0x45,0x08,0x3a,0x0a,0x40,0x6e,0x61,0x6d,0x65,0x49,0x22,0x09,0x4d,0x6f,0x76,0x65,0x06,0x3a,0x06,0x45,0x54,0x3a,0x0b,0x40,0x70,0x69,0x74,0x63,0x68,0x69,0x69,0x3a,0x0c,0x40,0x76,0x6f,0x6c,0x75,0x6d,0x65,0x69,0x55))
  TeleportPlayer(0,382,39,50,0,0)
  If(4,533,0)
   ShowMessageFace("grandnoa_fc1",3,0,2,10)
   ShowMessage("\\n<メダル女王>I just remembered I have urgent business to attend to. Be back soon...")
   ChangePartyMember(533,1,0)
   ShowMessageFace("",0,0,2,11)
   ShowMessage("The Queen of Grand Noah temporarily left the party!")
   0()
  EndIf()
  0()



EVENT   2
 PAGE   1
  0()



EVENT   3
 PAGE   1
  0()



EVENT   4
 PAGE   1
  0()



EVENT   5
 PAGE   1
  0()



EVENT   6
 PAGE   1
  0()



EVENT   7
 PAGE   1
  0()



EVENT   8
 PAGE   1
  0()



EVENT   9
 PAGE   1
  0()



EVENT   10
 PAGE   1
  0()



EVENT   11
 PAGE   1
  0()



EVENT   12
 PAGE   1
  0()



EVENT   13
 PAGE   1
  0()



EVENT   14
 PAGE   1
  0()



EVENT   15
 PAGE   1
  0()



EVENT   16
 PAGE   1
  0()



EVENT   17
 PAGE   1
  0()



EVENT   18
 PAGE   1
  ShowMessageFace("",0,0,2,1)
  ShowMessage("扉は固く閉ざされている……")
  0()



EVENT   19
 PAGE   1
  ShowMessageFace("mino_fc1",0,0,2,1)
  ShowMessage("\\n<ミノタウロス娘>ミンタウロスなめんな、オラァ！")
  ShowMessageFace("amazoneself_fc1",0,0,2,2)
  ShowMessage("\\n<アマゾネスエルフ>相手にとって、不足はないわ！")
  0()



EVENT   20
 PAGE   1
  ShowMessageFace("",0,0,2,1)
  ShowMessage("扉は固く閉ざされている……")
  0()



EVENT   21
 PAGE   1
  ShowMessageFace("",0,0,2,1)
  ShowMessage("扉は固く閉ざされている……")
  0()



EVENT   22
 PAGE   1
  ShowMessageFace("",0,0,2,1)
  ShowMessage("扉は固く閉ざされている……")
  0()



EVENT   23
 PAGE   1
  ShowMessageFace("",0,0,2,1)
  ShowMessage("扉は固く閉ざされている……")
  0()



EVENT   24
 PAGE   1
  ShowMessageFace("",0,0,2,1)
  ShowMessage("扉は固く閉ざされている……")
  0()



EVENT   25
 PAGE   1
  ShowMessageFace("",0,0,2,1)
  ShowMessage("扉は固く閉ざされている……")
  0()



EVENT   26
 PAGE   1
  ShowMessageFace("",0,0,2,1)
  ShowMessage("扉は固く閉ざされている……")
  0()



EVENT   27
 PAGE   1
  ShowMessageFace("",0,0,2,1)
  ShowMessage("扉は固く閉ざされている……")
  0()



EVENT   28
 PAGE   1
  ShowMessageFace("",0,0,2,1)
  ShowMessage("\\n<戦士>この町は、魔王の手に落ちてしまうのか……")
  355("actor_label_jump")
  EndEventProcessing()
  DefineLabel("45")
  ShowMessageFace("alicetromeria_fc1",4,0,2,2)
  ShowMessage("\\n<アリストロメリア>大丈夫、私達が助けてあげますわ……")
  EndEventProcessing()
  0()



EVENT   29
 PAGE   1
  250(bytes(0x04,0x08,0x6f,0x3a,0x0c,0x52,0x50,0x47,0x3a,0x3a,0x53,0x45,0x08,0x3a,0x0a,0x40,0x6e,0x61,0x6d,0x65,0x49,0x22,0x09,0x4d,0x6f,0x76,0x65,0x06,0x3a,0x06,0x45,0x54,0x3a,0x0b,0x40,0x70,0x69,0x74,0x63,0x68,0x69,0x69,0x3a,0x0c,0x40,0x76,0x6f,0x6c,0x75,0x6d,0x65,0x69,0x55))
  TeleportPlayer(0,2,329,186,2,0)
  0()



EVENT   30
 PAGE   1
  250(bytes(0x04,0x08,0x6f,0x3a,0x0c,0x52,0x50,0x47,0x3a,0x3a,0x53,0x45,0x08,0x3a,0x0a,0x40,0x6e,0x61,0x6d,0x65,0x49,0x22,0x09,0x4d,0x6f,0x76,0x65,0x06,0x3a,0x06,0x45,0x54,0x3a,0x0b,0x40,0x70,0x69,0x74,0x63,0x68,0x69,0x69,0x3a,0x0c,0x40,0x76,0x6f,0x6c,0x75,0x6d,0x65,0x69,0x55))
  TeleportPlayer(0,2,329,186,2,0)
  0()



EVENT   31
 PAGE   1
  0()



EVENT   32
 PAGE   1
  ShowMessageFace("",0,0,2,1)
  ShowMessage("\\n<兵士>コロシアムには踏み込ませんぞ！")
  ShowMessageFace("",0,0,2,2)
  ShowMessage("\\n<コロシアムの闘士>俺達の愛するコロシアムを守れー！")
  ShowMessageFace("",0,0,2,3)
  ShowMessage("コロシアム前は大乱戦だ！")
  ShowMessage("通る事はできそうにない……")
  0()



EVENT   33
 PAGE   1
  0()



EVENT   34
 PAGE   1
  0()



EVENT   35
 PAGE   1
  0()



EVENT   36
 PAGE   1
  ShowMessageFace("tatunoko_k_fc1",1,0,2,1)
  ShowMessage("\\n<Sea Horse Marine>良き海兵は三十六計に通ず……")
  ShowMessage("これぞ必殺、鋒矢の陣なのです！")
  ShowMessageFace("elf_fc1",2,0,2,2)
  ShowMessage("\\n<エルフ>きゃぁぁぁ！！")
  If(4,203,0)
   ShowMessageFace("tatunoko_k_fc1",1,0,2,3)
   ShowMessage("\\n<たつこ>みんな、がんばれ～！")
   0()
  EndIf()
  If(4,204,0)
   ShowMessageFace("umiusi_k_fc1",0,0,2,4)
   ShowMessage("\\n<ステイシー>ファイトですよ～！")
   0()
  EndIf()
  0()



EVENT   37
 PAGE   1
  0()



EVENT   38
 PAGE   1
  0()



EVENT   39
 PAGE   1
  0()



EVENT   40
 PAGE   1
  ShowMessageFace("tatunoko_k_fc1",1,0,2,1)
  ShowMessage("\\n<Sea Horse Marine>良き海兵は三十六計に通ず……")
  ShowMessage("これぞ必殺、鋒矢の陣なのです！")
  ShowMessageFace("elf_fc1",2,0,2,2)
  ShowMessage("\\n<エルフ>きゃぁぁぁ！！")
  If(4,203,0)
   ShowMessageFace("tatunoko_k_fc1",1,0,2,3)
   ShowMessage("\\n<たつこ>みんな、がんばれ～！")
   0()
  EndIf()
  If(4,204,0)
   ShowMessageFace("umiusi_k_fc1",0,0,2,4)
   ShowMessage("\\n<ステイシー>ファイトですよ～！")
   0()
  EndIf()
  0()



EVENT   41
 PAGE   1
  0()



EVENT   42
 PAGE   1
  0()



EVENT   43
 PAGE   1
  PictureDisplay(5,"80_gigantic_st01",0,0,0,0,100,100,255,0)
  ShowMessageFace("gigantic_fc1",0,0,2,1)
  ShowMessage("\\n<ジャイガンテック娘>うがー！　あばれるぞー！")
  ShowMessageFace("",0,0,2,2)
  ShowMessage("\\n<兵士Ａ>うわぁぁぁ……！！")
  ShowMessageFace("",0,0,2,3)
  ShowMessage("\\n<兵士Ｂ>こんなの、どうやって止めろってんだ……！")
  ShowMessageFace("ruka_fc1",0,0,2,4)
  ShowMessage("\\n<ルカ>下がって！　僕が戦う！")
  If(4,218,0)
   ShowMessageFace("nyumaou_fc1",0,0,2,5)
   ShowMessage("\\n<牛魔王>ふん、大きければ良いというものではない！")
   ShowMessage("形と柔らかさが重要なのだ！")
   0()
  EndIf()
  PictureClear(5)
  Battle(0,783,false,false)
  ChangeSwitch(2217,2217,0)
  ShowMessageFace("",0,0,2,6)
  ShowMessage("\\n<兵士Ａ>す、すげぇ……巨人をやっつけた……")
  ShowMessageFace("",0,0,2,7)
  ShowMessage("\\n<兵士Ｂ>知ってるぞ、あの少年が勇者ルカだ！")
  ShowMessage("ゴルド戦争を勝利に導いた英雄だ！")
  ShowMessageFace("",0,0,2,8)
  ShowMessage("\\n<兵士Ｃ>ありがとうございます！")
  ShowMessage("これをお受け取り下さい！")
  205(-1,bytes(0x04,0x08,0x6f,0x3a,0x13,0x52,0x50,0x47,0x3a,0x3a,0x4d,0x6f,0x76,0x65,0x52,0x6f,0x75,0x74,0x65,0x09,0x3a,0x0c,0x40,0x72,0x65,0x70,0x65,0x61,0x74,0x46,0x3a,0x0f,0x40,0x73,0x6b,0x69,0x70,0x70,0x61,0x62,0x6c,0x65,0x46,0x3a,0x0a,0x40,0x77,0x61,0x69,0x74,0x54,0x3a,0x0a,0x40,0x6c,0x69,0x73,0x74,0x5b,0x07,0x6f,0x3a,0x15,0x52,0x50,0x47,0x3a,0x3a,0x4d,0x6f,0x76,0x65,0x43,0x6f,0x6d,0x6d,0x61,0x6e,0x64,0x07,0x3a,0x0a,0x40,0x63,0x6f,0x64,0x65,0x69,0x15,0x3a,0x10,0x40,0x70,0x61,0x72,0x61,0x6d,0x65,0x74,0x65,0x72,0x73,0x5b,0x00,0x6f,0x3b,0x0a,0x07,0x3b,0x0b,0x69,0x00,0x3b,0x0c,0x5b,0x00))
  250(bytes(0x04,0x08,0x6f,0x3a,0x0c,0x52,0x50,0x47,0x3a,0x3a,0x53,0x45,0x08,0x3a,0x0a,0x40,0x6e,0x61,0x6d,0x65,0x49,0x22,0x0a,0x49,0x74,0x65,0x6d,0x31,0x06,0x3a,0x06,0x45,0x54,0x3a,0x0b,0x40,0x70,0x69,0x74,0x63,0x68,0x69,0x69,0x3a,0x0c,0x40,0x76,0x6f,0x6c,0x75,0x6d,0x65,0x69,0x55))
  ChangeInventory_Item(26,0,0,1)
  ShowMessageFace("",0,0,2,9)
  ShowMessage("\\n<兵士Ａ>それでは、我々は正面の防衛に回ります！")
  205(48,bytes(0x04,0x08,0x6f,0x3a,0x13,0x52,0x50,0x47,0x3a,0x3a,0x4d,0x6f,0x76,0x65,0x52,0x6f,0x75,0x74,0x65,0x09,0x3a,0x0c,0x40,0x72,0x65,0x70,0x65,0x61,0x74,0x46,0x3a,0x0f,0x40,0x73,0x6b,0x69,0x70,0x70,0x61,0x62,0x6c,0x65,0x46,0x3a,0x0a,0x40,0x77,0x61,0x69,0x74,0x46,0x3a,0x0a,0x40,0x6c,0x69,0x73,0x74,0x5b,0x15,0x6f,0x3a,0x15,0x52,0x50,0x47,0x3a,0x3a,0x4d,0x6f,0x76,0x65,0x43,0x6f,0x6d,0x6d,0x61,0x6e,0x64,0x07,0x3a,0x0a,0x40,0x63,0x6f,0x64,0x65,0x69,0x22,0x3a,0x10,0x40,0x70,0x61,0x72,0x61,0x6d,0x65,0x74,0x65,0x72,0x73,0x5b,0x06,0x69,0x0a,0x6f,0x3b,0x0a,0x07,0x3b,0x0b,0x69,0x23,0x3b,0x0c,0x5b,0x06,0x69,0x09,0x6f,0x3b,0x0a,0x07,0x3b,0x0b,0x69,0x2a,0x3b,0x0c,0x5b,0x00,0x6f,0x3b,0x0a,0x07,0x3b,0x0b,0x69,0x29,0x3b,0x0c,0x5b,0x00,0x6f,0x3b,0x0a,0x07,0x3b,0x0b,0x69,0x06,0x3b,0x0c,0x5b,0x00,0x6f,0x3b,0x0a,0x07,0x3b,0x0b,0x69,0x06,0x3b,0x0c,0x5b,0x00,0x6f,0x3b,0x0a,0x07,0x3b,0x0b,0x69,0x06,0x3b,0x0c,0x5b,0x00,0x6f,0x3b,0x0a,0x07,0x3b,0x0b,0x69,0x06,0x3b,0x0c,0x5b,0x00,0x6f,0x3b,0x0a,0x07,0x3b,0x0b,0x69,0x06,0x3b,0x0c,0x5b,0x00,0x6f,0x3b,0x0a,0x07,0x3b,0x0b,0x69,0x06,0x3b,0x0c,0x5b,0x00,0x6f,0x3b,0x0a,0x07,0x3b,0x0b,0x69,0x06,0x3b,0x0c,0x5b,0x00,0x6f,0x3b,0x0a,0x07,0x3b,0x0b,0x69,0x06,0x3b,0x0c,0x5b,0x00,0x6f,0x3b,0x0a,0x07,0x3b,0x0b,0x69,0x06,0x3b,0x0c,0x5b,0x00,0x6f,0x3b,0x0a,0x07,0x3b,0x0b,0x69,0x06,0x3b,0x0c,0x5b,0x00,0x6f,0x3b,0x0a,0x07,0x3b,0x0b,0x69,0x06,0x3b,0x0c,0x5b,0x00,0x6f,0x3b,0x0a,0x07,0x3b,0x0b,0x69,0x00,0x3b,0x0c,0x5b,0x00))
  205(54,bytes(0x04,0x08,0x6f,0x3a,0x13,0x52,0x50,0x47,0x3a,0x3a,0x4d,0x6f,0x76,0x65,0x52,0x6f,0x75,0x74,0x65,0x09,0x3a,0x0c,0x40,0x72,0x65,0x70,0x65,0x61,0x74,0x46,0x3a,0x0f,0x40,0x73,0x6b,0x69,0x70,0x70,0x61,0x62,0x6c,0x65,0x46,0x3a,0x0a,0x40,0x77,0x61,0x69,0x74,0x46,0x3a,0x0a,0x40,0x6c,0x69,0x73,0x74,0x5b,0x15,0x6f,0x3a,0x15,0x52,0x50,0x47,0x3a,0x3a,0x4d,0x6f,0x76,0x65,0x43,0x6f,0x6d,0x6d,0x61,0x6e,0x64,0x07,0x3a,0x0a,0x40,0x63,0x6f,0x64,0x65,0x69,0x22,0x3a,0x10,0x40,0x70,0x61,0x72,0x61,0x6d,0x65,0x74,0x65,0x72,0x73,0x5b,0x06,0x69,0x0a,0x6f,0x3b,0x0a,0x07,0x3b,0x0b,0x69,0x23,0x3b,0x0c,0x5b,0x06,0x69,0x09,0x6f,0x3b,0x0a,0x07,0x3b,0x0b,0x69,0x2a,0x3b,0x0c,0x5b,0x00,0x6f,0x3b,0x0a,0x07,0x3b,0x0b,0x69,0x29,0x3b,0x0c,0x5b,0x00,0x6f,0x3b,0x0a,0x07,0x3b,0x0b,0x69,0x06,0x3b,0x0c,0x5b,0x00,0x6f,0x3b,0x0a,0x07,0x3b,0x0b,0x69,0x06,0x3b,0x0c,0x5b,0x00,0x6f,0x3b,0x0a,0x07,0x3b,0x0b,0x69,0x06,0x3b,0x0c,0x5b,0x00,0x6f,0x3b,0x0a,0x07,0x3b,0x0b,0x69,0x06,0x3b,0x0c,0x5b,0x00,0x6f,0x3b,0x0a,0x07,0x3b,0x0b,0x69,0x06,0x3b,0x0c,0x5b,0x00,0x6f,0x3b,0x0a,0x07,0x3b,0x0b,0x69,0x06,0x3b,0x0c,0x5b,0x00,0x6f,0x3b,0x0a,0x07,0x3b,0x0b,0x69,0x06,0x3b,0x0c,0x5b,0x00,0x6f,0x3b,0x0a,0x07,0x3b,0x0b,0x69,0x06,0x3b,0x0c,0x5b,0x00,0x6f,0x3b,0x0a,0x07,0x3b,0x0b,0x69,0x06,0x3b,0x0c,0x5b,0x00,0x6f,0x3b,0x0a,0x07,0x3b,0x0b,0x69,0x06,0x3b,0x0c,0x5b,0x00,0x6f,0x3b,0x0a,0x07,0x3b,0x0b,0x69,0x06,0x3b,0x0c,0x5b,0x00,0x6f,0x3b,0x0a,0x07,0x3b,0x0b,0x69,0x00,0x3b,0x0c,0x5b,0x00))
  205(65,bytes(0x04,0x08,0x6f,0x3a,0x13,0x52,0x50,0x47,0x3a,0x3a,0x4d,0x6f,0x76,0x65,0x52,0x6f,0x75,0x74,0x65,0x09,0x3a,0x0c,0x40,0x72,0x65,0x70,0x65,0x61,0x74,0x46,0x3a,0x0f,0x40,0x73,0x6b,0x69,0x70,0x70,0x61,0x62,0x6c,0x65,0x46,0x3a,0x0a,0x40,0x77,0x61,0x69,0x74,0x54,0x3a,0x0a,0x40,0x6c,0x69,0x73,0x74,0x5b,0x15,0x6f,0x3a,0x15,0x52,0x50,0x47,0x3a,0x3a,0x4d,0x6f,0x76,0x65,0x43,0x6f,0x6d,0x6d,0x61,0x6e,0x64,0x07,0x3a,0x0a,0x40,0x63,0x6f,0x64,0x65,0x69,0x22,0x3a,0x10,0x40,0x70,0x61,0x72,0x61,0x6d,0x65,0x74,0x65,0x72,0x73,0x5b,0x06,0x69,0x0a,0x6f,0x3b,0x0a,0x07,0x3b,0x0b,0x69,0x23,0x3b,0x0c,0x5b,0x06,0x69,0x09,0x6f,0x3b,0x0a,0x07,0x3b,0x0b,0x69,0x2a,0x3b,0x0c,0x5b,0x00,0x6f,0x3b,0x0a,0x07,0x3b,0x0b,0x69,0x29,0x3b,0x0c,0x5b,0x00,0x6f,0x3b,0x0a,0x07,0x3b,0x0b,0x69,0x06,0x3b,0x0c,0x5b,0x00,0x6f,0x3b,0x0a,0x07,0x3b,0x0b,0x69,0x06,0x3b,0x0c,0x5b,0x00,0x6f,0x3b,0x0a,0x07,0x3b,0x0b,0x69,0x06,0x3b,0x0c,0x5b,0x00,0x6f,0x3b,0x0a,0x07,0x3b,0x0b,0x69,0x06,0x3b,0x0c,0x5b,0x00,0x6f,0x3b,0x0a,0x07,0x3b,0x0b,0x69,0x06,0x3b,0x0c,0x5b,0x00,0x6f,0x3b,0x0a,0x07,0x3b,0x0b,0x69,0x06,0x3b,0x0c,0x5b,0x00,0x6f,0x3b,0x0a,0x07,0x3b,0x0b,0x69,0x06,0x3b,0x0c,0x5b,0x00,0x6f,0x3b,0x0a,0x07,0x3b,0x0b,0x69,0x06,0x3b,0x0c,0x5b,0x00,0x6f,0x3b,0x0a,0x07,0x3b,0x0b,0x69,0x06,0x3b,0x0c,0x5b,0x00,0x6f,0x3b,0x0a,0x07,0x3b,0x0b,0x69,0x06,0x3b,0x0c,0x5b,0x00,0x6f,0x3b,0x0a,0x07,0x3b,0x0b,0x69,0x06,0x3b,0x0c,0x5b,0x00,0x6f,0x3b,0x0a,0x07,0x3b,0x0b,0x69,0x00,0x3b,0x0c,0x5b,0x00))
  ChangeSwitch(2218,2218,0)
  0()
 PAGE   2
  // condition: switch 2217 is ON
  0()



EVENT   44
 PAGE   1
  250(bytes(0x04,0x08,0x6f,0x3a,0x0c,0x52,0x50,0x47,0x3a,0x3a,0x53,0x45,0x08,0x3a,0x0a,0x40,0x6e,0x61,0x6d,0x65,0x49,0x22,0x09,0x4d,0x6f,0x76,0x65,0x06,0x3a,0x06,0x45,0x54,0x3a,0x0b,0x40,0x70,0x69,0x74,0x63,0x68,0x69,0x69,0x3a,0x0c,0x40,0x76,0x6f,0x6c,0x75,0x6d,0x65,0x69,0x55))
  TeleportPlayer(0,2,329,186,2,0)
  0()



EVENT   45
 PAGE   1
  ShowMessageFace("elf_fc1",0,0,2,1)
  ShowMessage("\\n<エルフ>この町を、新たなエルフの都にするのよ……！")
  ShowMessageFace("",0,0,2,2)
  ShowMessage("\\n<兵士>こっちは大丈夫です！　他の救援をお願いします！")
  0()



EVENT   47
 PAGE   1
  ShowMessageFace("",0,0,2,1)
  ShowMessage("\\n<兵士>敵は、エルフと妖精……")
  ShowMessage("とんでもない数が、城の方に……")
  355("actor_label_jump")
  EndEventProcessing()
  DefineLabel("45")
  ShowMessageFace("alicetromeria_fc1",4,0,2,2)
  ShowMessage("\\n<アリストロメリア>あらあら、エルフとフェアリーのお茶会でしょうか。")
  EndEventProcessing()
  0()



EVENT   48
 PAGE   1
  ShowMessageFace("",0,0,2,1)
  ShowMessage("\\n<兵士>ちょ、こんなの無理だろ……！")
  0()
 PAGE   2
  // condition: switch 2218 is ON
  0()



EVENT   49
 PAGE   1
  ShowMessageFace("amazoneself_fc1",1,0,2,1)
  ShowMessage("\\n<アマゾネスエルフ>あんたが噂の勇者かい？")
  ShowMessage("たっぷり犯して、子を孕んでやるよ！")
  If(4,275,0)
   ShowMessageFace("beelzebub_fc1",0,0,2,2)
   ShowMessage("\\n<バーバレラ>それはできないわ、私の仕事だから……")
   0()
  EndIf()
  Battle(0,779,false,false)
  TemporaryRemoveEvent()
  0()



EVENT   50
 PAGE   1
  ShowMessageFace("alraune_fc1",0,0,2,1)
  ShowMessage("\\n<アルラウネ>お花を守りますよー！")
  ShowMessageFace("elf_fc1",0,0,2,2)
  ShowMessage("\\n<エルフ>なぜ、魔物が人に味方するの！？")
  0()



EVENT   51
 PAGE   1
  ShowMessageFace("",0,0,2,1)
  ShowMessage("\\n<兵士>……………………")
  0()



EVENT   52
 PAGE   1
  ShowMessageFace("",0,0,2,1)
  ShowMessage("\\n<パン売りのお姉さん>おいしい……パンを……")
  355("actor_label_jump")
  EndEventProcessing()
  DefineLabel("72")
  ShowMessageFace("phoenix_fc1",5,0,2,2)
  ShowMessage("\\n<ミニ>パンのおねえさんー！！")
  EndEventProcessing()
  0()



EVENT   53
 PAGE   1
  241(bytes(0x04,0x08,0x6f,0x3a,0x0d,0x52,0x50,0x47,0x3a,0x3a,0x42,0x47,0x4d,0x08,0x3a,0x0a,0x40,0x6e,0x61,0x6d,0x65,0x49,0x22,0x0a,0x62,0x6f,0x73,0x73,0x30,0x06,0x3a,0x06,0x45,0x54,0x3a,0x0c,0x40,0x76,0x6f,0x6c,0x75,0x6d,0x65,0x69,0x69,0x3a,0x0b,0x40,0x70,0x69,0x74,0x63,0x68,0x69,0x69))
  PictureDisplay(5,"80_queenfairy_st01",0,0,0,0,100,100,0,0)
  PictureMove(5,null,0,0,0,0,100,100,255,0,60,true)
  ShowMessageFace("queenfairy_fc1",0,0,2,1)
  ShowMessage("\\n<クィーンフェアリー>さあ、進みなさい！")
  ShowMessage("この地を征した暁には、ここが我らの新天地となるのです！")
  If(0,4,0)
   ShowMessageFace("alice_fc6",1,0,2,2)
   ShowMessage("\\n<アリス>クィーンフェアリー、これは何事なのだ！")
   ShowMessage("なぜ貴様達フェアリーやエルフが、人間の国を攻める！")
   0()
  EndIf()
  If(0,5,0)
   ShowMessageFace("iriasu_fc4",7,0,2,3)
   ShowMessage("\\n<イリアス>クィーンフェアリー、これは何のつもりです？")
   ShowMessage("妖精もエルフも、森で大人しく引きこもっていれば良いものを……")
   0()
  EndIf()
  205(0,bytes(0x04,0x08,0x6f,0x3a,0x13,0x52,0x50,0x47,0x3a,0x3a,0x4d,0x6f,0x76,0x65,0x52,0x6f,0x75,0x74,0x65,0x09,0x3a,0x0c,0x40,0x72,0x65,0x70,0x65,0x61,0x74,0x46,0x3a,0x0f,0x40,0x73,0x6b,0x69,0x70,0x70,0x61,0x62,0x6c,0x65,0x46,0x3a,0x0a,0x40,0x77,0x61,0x69,0x74,0x54,0x3a,0x0a,0x40,0x6c,0x69,0x73,0x74,0x5b,0x08,0x6f,0x3a,0x15,0x52,0x50,0x47,0x3a,0x3a,0x4d,0x6f,0x76,0x65,0x43,0x6f,0x6d,0x6d,0x61,0x6e,0x64,0x07,0x3a,0x0a,0x40,0x63,0x6f,0x64,0x65,0x69,0x29,0x3a,0x10,0x40,0x70,0x61,0x72,0x61,0x6d,0x65,0x74,0x65,0x72,0x73,0x5b,0x00,0x6f,0x3b,0x0a,0x07,0x3b,0x0b,0x69,0x1e,0x3b,0x0c,0x5b,0x00,0x6f,0x3b,0x0a,0x07,0x3b,0x0b,0x69,0x00,0x3b,0x0c,0x5b,0x00))
  ShowMessageFace("queenfairy_fc1",0,0,2,4)
  ShowMessage("\\n<クィーンフェアリー>あなた達は、何者です？")
  ShowMessage("魔王様の命令を受けた私を、邪魔しようというのですか……？")
  If(0,4,0)
   ShowMessageFace("alice_fc6",0,0,2,5)
   ShowMessage("\\n<アリス>魔王の走狗と成り下がったというわけか。")
   ShowMessage("聞いたところ、この地の支配権と引き替えに……")
   0()
  EndIf()
  If(0,5,0)
   ShowMessageFace("iriasu_fc4",7,0,2,6)
   ShowMessage("\\n<イリアス>やはり、魔王の命令で攻撃を行ったのですね。")
   ShowMessage("そのご褒美に、この地をもらおうというのでしょう……")
   0()
  EndIf()
  ShowMessageFace("queenfairy_fc1",0,0,2,7)
  ShowMessage("\\n<クィーンフェアリー>人間は森を破壊し、私達の住処を奪いました。")
  ShowMessage("そして我々は、妖精の島まで追い込まれてしまったのです……")
  ShowMessageFace("queenfairy_fc1",0,0,2,8)
  ShowMessage("\\n<クィーンフェアリー>これも、ひとえに争いを避け続けた我らの過ち！")
  ShowMessage("人間の暴虐に対しては、実力行使をもって抵抗します！")
  If(0,4,0)
   ShowMessageFace("alice_fc5",2,0,2,9)
   ShowMessage("\\n<アリス>貴様等にも言い分はあるだろう……")
   ShowMessage("……が、これは一方的な侵略に過ぎんぞ。")
   0()
  EndIf()
  If(0,5,0)
   ShowMessageFace("iriasu_fc4",7,0,2,10)
   ShowMessage("\\n<イリアス>どんな理屈があろうが、暴力に頼った時点で失格です。")
   ShowMessage("暴力を肯定するなら、暴力で制される事を知りなさい！")
   0()
  EndIf()
  ShowMessageFace("ruka_fc1",0,0,2,11)
  ShowMessage("\\n<ルカ>言いたい事があるなら、ちゃんと聞くよ。")
  ShowMessage("だから、まずは軍を退いてくれ。")
  ShowMessageFace("queenfairy_fc1",0,0,2,12)
  ShowMessage("\\n<クィーンフェアリー>問答は無用……邪魔する者は、力を持って排除するのみ。")
  ShowMessage("あなた達にも、大自然の怒りを思い知って頂きましょう！")
  If(4,315,0)
   ShowMessageFace("queenfairy_fc1",0,0,2,13)
   ShowMessage("\\n<エアリー>魔術でここまで心を乱されてしまうとは……")
   ShowMessage("いや、本来持っていた憎悪が増幅されているのでしたね。")
   ShowMessageFace("queenfairy_fc1",2,0,2,14)
   ShowMessage("\\n<クィーンフェアリー>これは何の悪戯です？")
   ShowMessage("私の姿を真似るとは……！")
   ShowMessageFace("queenfairy_fc1",0,0,2,15)
   ShowMessage("\\n<エアリー>あなたの心は、悪しき魔術にて惑わされているのです……")
   ShowMessage("そう言ったところで、聞きはしないのでしょうね。")
   ShowMessageFace("queenfairy_fc1",2,0,2,16)
   ShowMessage("\\n<クィーンフェアリー>訳の分からない事を……！")
   ShowMessage("偽物もろとも、ここで散りなさい！")
   0()
  EndIf()
  If(4,45,0)
   ShowMessageFace("alicetromeria_fc1",4,0,2,17)
   ShowMessage("\\n<アリストロメリア>さあ、パーティを始めましょう。")
   ShowMessage("妖精の女王、この私がもてなして差し上げますわ……")
   0()
  EndIf()
  If(4,79,0)
   ShowMessageFace("nuruko_fc1",0,0,2,18)
   ShowMessage("\\n<ヌルコ>きゅきゅきゅー！")
   0()
  EndIf()
  PictureClear(5)
  SetBattleBGM(bytes(0x04,0x08,0x6f,0x3a,0x0d,0x52,0x50,0x47,0x3a,0x3a,0x42,0x47,0x4d,0x08,0x3a,0x0a,0x40,0x6e,0x61,0x6d,0x65,0x49,0x22,0x0a,0x62,0x6f,0x73,0x73,0x32,0x06,0x3a,0x06,0x45,0x54,0x3a,0x0c,0x40,0x76,0x6f,0x6c,0x75,0x6d,0x65,0x69,0x69,0x3a,0x0b,0x40,0x70,0x69,0x74,0x63,0x68,0x69,0x69))
  ChangeSwitch(22,22,0)
  Battle(0,784,false,false)
  ChangeSwitch(22,22,1)
  SetBattleBGM(bytes(0x04,0x08,0x6f,0x3a,0x0d,0x52,0x50,0x47,0x3a,0x3a,0x42,0x47,0x4d,0x08,0x3a,0x0a,0x40,0x6e,0x61,0x6d,0x65,0x49,0x22,0x0b,0x62,0x61,0x74,0x74,0x6c,0x65,0x06,0x3a,0x06,0x45,0x54,0x3a,0x0c,0x40,0x76,0x6f,0x6c,0x75,0x6d,0x65,0x69,0x69,0x3a,0x0b,0x40,0x70,0x69,0x74,0x63,0x68,0x69,0x69))
  241(bytes(0x04,0x08,0x6f,0x3a,0x0d,0x52,0x50,0x47,0x3a,0x3a,0x42,0x47,0x4d,0x08,0x3a,0x0a,0x40,0x6e,0x61,0x6d,0x65,0x49,0x22,0x0a,0x6b,0x69,0x6b,0x69,0x32,0x06,0x3a,0x06,0x45,0x54,0x3a,0x0c,0x40,0x76,0x6f,0x6c,0x75,0x6d,0x65,0x69,0x69,0x3a,0x0b,0x40,0x70,0x69,0x74,0x63,0x68,0x69,0x69))
  PictureDisplay(5,"80_queenfairy_st03",0,0,0,0,100,100,0,0)
  PictureMove(5,null,0,0,0,0,100,100,255,0,30,true)
  If(4,12,0)
   ShowMessageFace("sylph_fc1",4,0,2,19)
   ShowMessage("\\n<シルフ>こんな戦い、イヤだよ～！")
   0()
  EndIf()
  If(4,13,0)
   ShowMessageFace("gnome_fc1",0,0,2,20)
   ShowMessage("\\n<ノーム>……………………")
   0()
  EndIf()
  ShowMessageFace("queenfairy_fc1",2,0,2,21)
  ShowMessage("\\n<クィーンフェアリー>まさか、この私が敗北を喫するとは……")
  ShowMessage("やむを得ません、いったん軍を退きます。")
  ShowMessageFace("queenfairy_fc1",2,0,2,22)
  ShowMessage("\\n<クィーンフェアリー>ですが、あくまで撃退したのは第一陣。")
  ShowMessage("怒れるエルフや妖精の軍団が、まだまだ控えている事をお忘れなく……")
  PictureClear(5)
  Wait(60)
  250(bytes(0x04,0x08,0x6f,0x3a,0x0c,0x52,0x50,0x47,0x3a,0x3a,0x53,0x45,0x08,0x3a,0x0a,0x40,0x6e,0x61,0x6d,0x65,0x49,0x22,0x0d,0x6d,0x6f,0x6e,0x5f,0x77,0x61,0x72,0x70,0x06,0x3a,0x06,0x45,0x54,0x3a,0x0b,0x40,0x70,0x69,0x74,0x63,0x68,0x69,0x69,0x3a,0x0c,0x40,0x76,0x6f,0x6c,0x75,0x6d,0x65,0x69,0x55))
  205(0,bytes(0x04,0x08,0x6f,0x3a,0x13,0x52,0x50,0x47,0x3a,0x3a,0x4d,0x6f,0x76,0x65,0x52,0x6f,0x75,0x74,0x65,0x09,0x3a,0x0c,0x40,0x72,0x65,0x70,0x65,0x61,0x74,0x46,0x3a,0x0f,0x40,0x73,0x6b,0x69,0x70,0x70,0x61,0x62,0x6c,0x65,0x46,0x3a,0x0a,0x40,0x77,0x61,0x69,0x74,0x54,0x3a,0x0a,0x40,0x6c,0x69,0x73,0x74,0x5b,0x07,0x6f,0x3a,0x15,0x52,0x50,0x47,0x3a,0x3a,0x4d,0x6f,0x76,0x65,0x43,0x6f,0x6d,0x6d,0x61,0x6e,0x64,0x07,0x3a,0x0a,0x40,0x63,0x6f,0x64,0x65,0x69,0x2c,0x3a,0x10,0x40,0x70,0x61,0x72,0x61,0x6d,0x65,0x74,0x65,0x72,0x73,0x5b,0x00,0x6f,0x3b,0x0a,0x07,0x3b,0x0b,0x69,0x00,0x3b,0x0c,0x5b,0x00))
  241(bytes(0x04,0x08,0x6f,0x3a,0x0d,0x52,0x50,0x47,0x3a,0x3a,0x42,0x47,0x4d,0x08,0x3a,0x0a,0x40,0x6e,0x61,0x6d,0x65,0x49,0x22,0x14,0x73,0x63,0x65,0x6e,0x65,0x5f,0x65,0x70,0x69,0x6c,0x6f,0x67,0x75,0x65,0x32,0x06,0x3a,0x06,0x45,0x54,0x3a,0x0c,0x40,0x76,0x6f,0x6c,0x75,0x6d,0x65,0x69,0x69,0x3a,0x0b,0x40,0x70,0x69,0x74,0x63,0x68,0x69,0x69))
  If(0,4,0)
   ShowMessageFace("alice_fc5",2,0,2,23)
   ShowMessage("\\n<アリス>よし、我々の勝利だ。")
   ShowMessage("これで、エルフや妖精達も退くだろう……今のところはな。")
   0()
  EndIf()
  If(0,5,0)
   ShowMessageFace("iriasu_fc4",0,0,2,24)
   ShowMessage("\\n<イリアス>やりましたね、私達の勝利です。")
   ShowMessage("これでエルフや妖精達も退くでしょう……今のところは。")
   0()
  EndIf()
  If(12,"exist_party_persona_id?(241)")
   ShowMessageFace("a_emp_fc1",0,0,2,25)
   ShowMessage("\\n<プリエステス>このような戦い、何も生み出しはしないのに……")
   ShowMessage("妖精の女王ほどの賢人が、なぜこんな短絡的な……")
   0()
  EndIf()
  If(12,"exist_party_persona_id?(242)")
   ShowMessageFace("a_emp_fc1",4,0,2,26)
   ShowMessage("\\n<プリエステス>フフッ。")
   0()
  EndIf()
  If(4,139,0)
   ShowMessageFace("fairys_fc1",3,0,2,27)
   ShowMessage("\\n<フェアリーズ>女王様らしくないよぉ……")
   0()
  EndIf()
  ChangeSwitch(2161,2161,0)
  314(0,0)
  RunCommonEvent(328)
  If(0,2273,0)
   EndEventProcessing()
   0()
  EndIf()
  ShowMessageFace("ruka_fc1",0,0,2,28)
  ShowMessage("\\n<ルカ>これで終わりじゃない！")
  ShowMessage("今も攻撃を受けている、他の国に急ごう！")
  221()
  ShowMessageFace("",0,0,2,29)
  ShowMessage("こうして僕達は、エルフ・フェアリー混成軍を撃退した。")
  ShowMessage("しかし歓呼の声を聞く間もなく、グランドノアを後にしなければならない。")
  ShowMessageFace("",0,0,2,30)
  ShowMessage("四大国を襲う、魔王軍の大攻勢――")
  ShowMessage("全力を尽くし、なんとしても防がなければ。")
  Wait(60)
  TeleportPlayer(0,2,328,187,2,2)
  222()
  EndEventProcessing()
  0()



EVENT   54
 PAGE   1
  ShowMessageFace("",0,0,2,1)
  ShowMessage("\\n<兵士>きょ、巨人……！？")
  0()
 PAGE   2
  // condition: switch 2218 is ON
  0()



EVENT   55
 PAGE   1
  0()



EVENT   56
 PAGE   1
  0()



EVENT   57
 PAGE   1
  0()



EVENT   59
 PAGE   1
  ShowMessageFace("",0,0,2,1)
  ShowMessage("\\n<若い青年>うぐぐ……")
  355("actor_label_jump")
  EndEventProcessing()
  DefineLabel("88")
  ShowMessageFace("jack_fc1",2,0,2,2)
  ShowMessage("\\n<かぼちゃ>大丈夫……？")
  EndEventProcessing()
  0()



EVENT   60
 PAGE   1
  If(0,2216,1)
   ShowMessageFace("",0,0,2,1)
   ShowMessage("\\n<エルフ>自然を汚す人間達……私達の怒りを知りなさい！")
   ShowMessageFace("",0,0,2,2)
   ShowMessage("\\n<ごろつき>た、助けてくれー！！")
   0()
  EndIf()
  If(0,2216,0)
   ShowMessageFace("",0,0,2,3)
   ShowMessage("\\n<ごろつき>まさか、こんなに大群で攻めてくるなんて……")
   0()
  EndIf()
  0()



EVENT   61
 PAGE   1
  ShowMessageFace("trickfairy_fc1",0,0,2,1)
  ShowMessage("\\n<トリックフェアリー>気持ちいいコト、してあげる～♪")
  If(4,294,0)
   ShowMessageFace("emily_fc1",1,0,2,2)
   ShowMessage("\\n<エミリ>いたずら妖精は、お仕置きしてやらないとね……！")
   0()
  EndIf()
  Battle(0,777,false,false)
  TemporaryRemoveEvent()
  0()



EVENT   62
 PAGE   1
  ShowMessageFace("",0,0,2,1)
  ShowMessage("\\n<衛兵>くっ、グランドノアから出て行け……！")
  ShowMessageFace("",0,0,2,2)
  ShowMessage("\\n<エルフ>さあ、観念しなさい！")
  0()



EVENT   63
 PAGE   1
  ShowMessageFace("",0,0,2,1)
  ShowMessage("←：コロシアム、この先")
  0()



EVENT   64
 PAGE   1
  ShowMessageFace("tatunoko_k_fc1",1,0,2,1)
  ShowMessage("\\n<Sea Horse Marine>良き海兵は三十六計に通ず……")
  ShowMessage("これぞ必殺、鋒矢の陣なのです！")
  ShowMessageFace("elf_fc1",2,0,2,2)
  ShowMessage("\\n<エルフ>きゃぁぁぁ！！")
  If(4,203,0)
   ShowMessageFace("tatunoko_k_fc1",1,0,2,3)
   ShowMessage("\\n<たつこ>みんな、がんばれ～！")
   0()
  EndIf()
  If(4,204,0)
   ShowMessageFace("umiusi_k_fc1",0,0,2,4)
   ShowMessage("\\n<ステイシー>ファイトですよ～！")
   0()
  EndIf()
  0()



EVENT   65
 PAGE   1
  ShowMessageFace("",0,0,2,1)
  ShowMessage("\\n<兵士>無理だこれ、絶対死ぬ……！")
  0()
 PAGE   2
  // condition: switch 2218 is ON
  0()



EVENT   66
 PAGE   1
  ShowMessageFace("elf_fc1",0,0,2,1)
  ShowMessage("\\n<エルフ>この町を、新たなエルフの都にするのよ……！")
  ShowMessageFace("",0,0,2,2)
  ShowMessage("\\n<兵士>こっちは大丈夫です！　他の救援をお願いします！")
  0()



EVENT   67
 PAGE   1
  ShowMessageFace("",0,0,2,1)
  ShowMessage("\\n<ハーピー>友情ボコボコアタ～ック！！")
  ShowMessageFace("",0,0,2,2)
  ShowMessage("\\n<マーメイド>私達の住処から、出て行きなさいよ！")
  ShowMessageFace("",2,0,2,3)
  ShowMessage("\\n<エルフ>くっ、こんな……卑怯よ……！")
  0()



EVENT   68
 PAGE   1
  ShowMessageFace("",0,0,2,1)
  ShowMessage("\\n<男>イタズラ……されちゃった……")
  0()



EVENT   69
 PAGE   1
  ShowMessageFace("fairys_fc1",0,0,2,1)
  ShowMessage("\\n<フェアリーズＡ>あははっ、いたずらしちゃえ～♪")
  ShowMessageFace("fairys_fc3",1,0,2,2)
  ShowMessage("\\n<フェアリーズＢ>もっと白いの出しちゃえ～♪")
  ShowMessageFace("",0,0,2,3)
  ShowMessage("\\n<男>やめて、やめて……あぁぁぁぁ――っ！！")
  ShowMessageFace("ruka_fc1",0,0,2,4)
  ShowMessage("\\n<ルカ>やめろっ！")
  205(69,bytes(0x04,0x08,0x6f,0x3a,0x13,0x52,0x50,0x47,0x3a,0x3a,0x4d,0x6f,0x76,0x65,0x52,0x6f,0x75,0x74,0x65,0x09,0x3a,0x0c,0x40,0x72,0x65,0x70,0x65,0x61,0x74,0x46,0x3a,0x0f,0x40,0x73,0x6b,0x69,0x70,0x70,0x61,0x62,0x6c,0x65,0x46,0x3a,0x0a,0x40,0x77,0x61,0x69,0x74,0x46,0x3a,0x0a,0x40,0x6c,0x69,0x73,0x74,0x5b,0x08,0x6f,0x3a,0x15,0x52,0x50,0x47,0x3a,0x3a,0x4d,0x6f,0x76,0x65,0x43,0x6f,0x6d,0x6d,0x61,0x6e,0x64,0x07,0x3a,0x0a,0x40,0x63,0x6f,0x64,0x65,0x69,0x29,0x3a,0x10,0x40,0x70,0x61,0x72,0x61,0x6d,0x65,0x74,0x65,0x72,0x73,0x5b,0x00,0x6f,0x3b,0x0a,0x07,0x3b,0x0b,0x69,0x1e,0x3b,0x0c,0x5b,0x00,0x6f,0x3b,0x0a,0x07,0x3b,0x0b,0x69,0x00,0x3b,0x0c,0x5b,0x00))
  205(84,bytes(0x04,0x08,0x6f,0x3a,0x13,0x52,0x50,0x47,0x3a,0x3a,0x4d,0x6f,0x76,0x65,0x52,0x6f,0x75,0x74,0x65,0x09,0x3a,0x0c,0x40,0x72,0x65,0x70,0x65,0x61,0x74,0x46,0x3a,0x0f,0x40,0x73,0x6b,0x69,0x70,0x70,0x61,0x62,0x6c,0x65,0x46,0x3a,0x0a,0x40,0x77,0x61,0x69,0x74,0x46,0x3a,0x0a,0x40,0x6c,0x69,0x73,0x74,0x5b,0x08,0x6f,0x3a,0x15,0x52,0x50,0x47,0x3a,0x3a,0x4d,0x6f,0x76,0x65,0x43,0x6f,0x6d,0x6d,0x61,0x6e,0x64,0x07,0x3a,0x0a,0x40,0x63,0x6f,0x64,0x65,0x69,0x29,0x3a,0x10,0x40,0x70,0x61,0x72,0x61,0x6d,0x65,0x74,0x65,0x72,0x73,0x5b,0x00,0x6f,0x3b,0x0a,0x07,0x3b,0x0b,0x69,0x1e,0x3b,0x0c,0x5b,0x00,0x6f,0x3b,0x0a,0x07,0x3b,0x0b,0x69,0x00,0x3b,0x0c,0x5b,0x00))
  205(156,bytes(0x04,0x08,0x6f,0x3a,0x13,0x52,0x50,0x47,0x3a,0x3a,0x4d,0x6f,0x76,0x65,0x52,0x6f,0x75,0x74,0x65,0x09,0x3a,0x0c,0x40,0x72,0x65,0x70,0x65,0x61,0x74,0x46,0x3a,0x0f,0x40,0x73,0x6b,0x69,0x70,0x70,0x61,0x62,0x6c,0x65,0x46,0x3a,0x0a,0x40,0x77,0x61,0x69,0x74,0x46,0x3a,0x0a,0x40,0x6c,0x69,0x73,0x74,0x5b,0x08,0x6f,0x3a,0x15,0x52,0x50,0x47,0x3a,0x3a,0x4d,0x6f,0x76,0x65,0x43,0x6f,0x6d,0x6d,0x61,0x6e,0x64,0x07,0x3a,0x0a,0x40,0x63,0x6f,0x64,0x65,0x69,0x29,0x3a,0x10,0x40,0x70,0x61,0x72,0x61,0x6d,0x65,0x74,0x65,0x72,0x73,0x5b,0x00,0x6f,0x3b,0x0a,0x07,0x3b,0x0b,0x69,0x1e,0x3b,0x0c,0x5b,0x00,0x6f,0x3b,0x0a,0x07,0x3b,0x0b,0x69,0x00,0x3b,0x0c,0x5b,0x00))
  ShowMessageFace("fairys_fc1",0,0,2,5)
  ShowMessage("\\n<フェアリーズＡ>また、新しい人間が来ちゃった……♪")
  ShowMessageFace("fairys_fc2",1,0,2,6)
  ShowMessage("\\n<フェアリーズＣ>イタズラしちゃえ～♪")
  If(4,139,0)
   ShowMessageFace("fairys_fc1",3,0,2,7)
   ShowMessage("\\n<フェアリーズ>秘技！　イタズラ返しだよ～♪")
   0()
  EndIf()
  Battle(0,207,false,false)
  ChangeSwitch(2220,2220,0)
  0()
 PAGE   2
  // condition: switch 2220 is ON
  0()



EVENT   70
 PAGE   1
  ShowMessageFace("",0,0,2,1)
  ShowMessage("\\n<男>はぅぅぅぅ……")
  0()



EVENT   71
 PAGE   1
  ShowMessageFace("tatunoko_k_fc1",1,0,2,1)
  ShowMessage("\\n<Sea Horse Marine>良き海兵は三十六計に通ず……")
  ShowMessage("これぞ必殺、鋒矢の陣なのです！")
  ShowMessageFace("elf_fc1",2,0,2,2)
  ShowMessage("\\n<エルフ>きゃぁぁぁ！！")
  If(4,203,0)
   ShowMessageFace("tatunoko_k_fc1",1,0,2,3)
   ShowMessage("\\n<たつこ>みんな、がんばれ～！")
   0()
  EndIf()
  If(4,204,0)
   ShowMessageFace("umiusi_k_fc1",0,0,2,4)
   ShowMessage("\\n<ステイシー>ファイトですよ～！")
   0()
  EndIf()
  0()



EVENT   72
 PAGE   1
  ShowMessageFace("tatunoko_k_fc1",1,0,2,1)
  ShowMessage("\\n<Sea Horse Marine>良き海兵は三十六計に通ず……")
  ShowMessage("これぞ必殺、鋒矢の陣なのです！")
  ShowMessageFace("elf_fc1",2,0,2,2)
  ShowMessage("\\n<エルフ>きゃぁぁぁ！！")
  If(4,203,0)
   ShowMessageFace("tatunoko_k_fc1",1,0,2,3)
   ShowMessage("\\n<たつこ>みんな、がんばれ～！")
   0()
  EndIf()
  If(4,204,0)
   ShowMessageFace("umiusi_k_fc1",0,0,2,4)
   ShowMessage("\\n<ステイシー>ファイトですよ～！")
   0()
  EndIf()
  0()



EVENT   73
 PAGE   1
  ShowMessageFace("amazoneself_fc1",1,0,2,1)
  ShowMessage("\\n<アマゾネスエルフ>歯ごたえがありそうだな……")
  ShowMessage("さあ、餌食にしてやろう！")
  If(4,171,0)
   ShowMessageFace("lizardboss_fc1",0,0,2,2)
   ShowMessage("\\n<ミランダ>餌食になるのは、そっちの方さ！")
   0()
  EndIf()
  Battle(0,778,false,false)
  TemporaryRemoveEvent()
  0()



EVENT   74
 PAGE   1
  0()



EVENT   75
 PAGE   1
  0()



EVENT   76
 PAGE   1
  0()



EVENT   77
 PAGE   1
  ShowMessageFace("tatunoko_k_fc1",1,0,2,1)
  ShowMessage("\\n<Sea Horse Marine>良き海兵は三十六計に通ず……")
  ShowMessage("これぞ必殺、鋒矢の陣なのです！")
  ShowMessageFace("elf_fc1",2,0,2,2)
  ShowMessage("\\n<エルフ>きゃぁぁぁ！！")
  If(4,203,0)
   ShowMessageFace("tatunoko_k_fc1",1,0,2,3)
   ShowMessage("\\n<たつこ>みんな、がんばれ～！")
   0()
  EndIf()
  If(4,204,0)
   ShowMessageFace("umiusi_k_fc1",0,0,2,4)
   ShowMessage("\\n<ステイシー>ファイトですよ～！")
   0()
  EndIf()
  0()



EVENT   78
 PAGE   1
  ShowMessageFace("",0,0,2,1)
  ShowMessage("\\n<兵士>コロシアムには踏み込ませんぞ！")
  ShowMessageFace("",0,0,2,2)
  ShowMessage("\\n<コロシアムの闘士>俺達の愛するコロシアムを守れー！")
  ShowMessageFace("",0,0,2,3)
  ShowMessage("コロシアム前は大乱戦だ！")
  ShowMessage("通る事はできそうにない……")
  0()



EVENT   79
 PAGE   1
  ShowMessageFace("tatunoko_k_fc1",1,0,2,1)
  ShowMessage("\\n<Sea Horse Marine>良き海兵は三十六計に通ず……")
  ShowMessage("これぞ必殺、鋒矢の陣なのです！")
  ShowMessageFace("elf_fc1",2,0,2,2)
  ShowMessage("\\n<エルフ>きゃぁぁぁ！！")
  If(4,203,0)
   ShowMessageFace("tatunoko_k_fc1",1,0,2,3)
   ShowMessage("\\n<たつこ>みんな、がんばれ～！")
   0()
  EndIf()
  If(4,204,0)
   ShowMessageFace("umiusi_k_fc1",0,0,2,4)
   ShowMessage("\\n<ステイシー>ファイトですよ～！")
   0()
  EndIf()
  0()



EVENT   80
 PAGE   1
  ShowMessageFace("",0,0,2,1)
  ShowMessage("\\n<ハーピー>友情ボコボコアタ～ック！！")
  ShowMessageFace("",0,0,2,2)
  ShowMessage("\\n<マーメイド>私達の住処から、出て行きなさいよ！")
  ShowMessageFace("",2,0,2,3)
  ShowMessage("\\n<エルフ>くっ、こんな……卑怯よ……！")
  0()



EVENT   81
 PAGE   1
  ShowMessageFace("",0,0,2,1)
  ShowMessage("\\n<ハーピー>友情ボコボコアタ～ック！！")
  ShowMessageFace("",0,0,2,2)
  ShowMessage("\\n<マーメイド>私達の住処から、出て行きなさいよ！")
  ShowMessageFace("",2,0,2,3)
  ShowMessage("\\n<エルフ>くっ、こんな……卑怯よ……！")
  0()



EVENT   82
 PAGE   1
  ShowMessageFace("",0,0,2,1)
  ShowMessage("\\n<兵士>コロシアムには踏み込ませんぞ！")
  ShowMessageFace("",0,0,2,2)
  ShowMessage("\\n<コロシアムの闘士>俺達の愛するコロシアムを守れー！")
  ShowMessageFace("",0,0,2,3)
  ShowMessage("コロシアム前は大乱戦だ！")
  ShowMessage("通る事はできそうにない……")
  0()



EVENT   83
 PAGE   1
  0()



EVENT   84
 PAGE   1
  ShowMessageFace("fairys_fc1",0,0,2,1)
  ShowMessage("\\n<フェアリーズＡ>あははっ、いたずらしちゃえ～♪")
  ShowMessageFace("fairys_fc3",1,0,2,2)
  ShowMessage("\\n<フェアリーズＢ>もっと白いの出しちゃえ～♪")
  ShowMessageFace("",0,0,2,3)
  ShowMessage("\\n<男>やめて、やめて……あぁぁぁぁ――っ！！")
  ShowMessageFace("ruka_fc1",0,0,2,4)
  ShowMessage("\\n<ルカ>やめろっ！")
  205(69,bytes(0x04,0x08,0x6f,0x3a,0x13,0x52,0x50,0x47,0x3a,0x3a,0x4d,0x6f,0x76,0x65,0x52,0x6f,0x75,0x74,0x65,0x09,0x3a,0x0c,0x40,0x72,0x65,0x70,0x65,0x61,0x74,0x46,0x3a,0x0f,0x40,0x73,0x6b,0x69,0x70,0x70,0x61,0x62,0x6c,0x65,0x46,0x3a,0x0a,0x40,0x77,0x61,0x69,0x74,0x46,0x3a,0x0a,0x40,0x6c,0x69,0x73,0x74,0x5b,0x08,0x6f,0x3a,0x15,0x52,0x50,0x47,0x3a,0x3a,0x4d,0x6f,0x76,0x65,0x43,0x6f,0x6d,0x6d,0x61,0x6e,0x64,0x07,0x3a,0x0a,0x40,0x63,0x6f,0x64,0x65,0x69,0x29,0x3a,0x10,0x40,0x70,0x61,0x72,0x61,0x6d,0x65,0x74,0x65,0x72,0x73,0x5b,0x00,0x6f,0x3b,0x0a,0x07,0x3b,0x0b,0x69,0x1e,0x3b,0x0c,0x5b,0x00,0x6f,0x3b,0x0a,0x07,0x3b,0x0b,0x69,0x00,0x3b,0x0c,0x5b,0x00))
  205(84,bytes(0x04,0x08,0x6f,0x3a,0x13,0x52,0x50,0x47,0x3a,0x3a,0x4d,0x6f,0x76,0x65,0x52,0x6f,0x75,0x74,0x65,0x09,0x3a,0x0c,0x40,0x72,0x65,0x70,0x65,0x61,0x74,0x46,0x3a,0x0f,0x40,0x73,0x6b,0x69,0x70,0x70,0x61,0x62,0x6c,0x65,0x46,0x3a,0x0a,0x40,0x77,0x61,0x69,0x74,0x46,0x3a,0x0a,0x40,0x6c,0x69,0x73,0x74,0x5b,0x08,0x6f,0x3a,0x15,0x52,0x50,0x47,0x3a,0x3a,0x4d,0x6f,0x76,0x65,0x43,0x6f,0x6d,0x6d,0x61,0x6e,0x64,0x07,0x3a,0x0a,0x40,0x63,0x6f,0x64,0x65,0x69,0x29,0x3a,0x10,0x40,0x70,0x61,0x72,0x61,0x6d,0x65,0x74,0x65,0x72,0x73,0x5b,0x00,0x6f,0x3b,0x0a,0x07,0x3b,0x0b,0x69,0x1e,0x3b,0x0c,0x5b,0x00,0x6f,0x3b,0x0a,0x07,0x3b,0x0b,0x69,0x00,0x3b,0x0c,0x5b,0x00))
  205(156,bytes(0x04,0x08,0x6f,0x3a,0x13,0x52,0x50,0x47,0x3a,0x3a,0x4d,0x6f,0x76,0x65,0x52,0x6f,0x75,0x74,0x65,0x09,0x3a,0x0c,0x40,0x72,0x65,0x70,0x65,0x61,0x74,0x46,0x3a,0x0f,0x40,0x73,0x6b,0x69,0x70,0x70,0x61,0x62,0x6c,0x65,0x46,0x3a,0x0a,0x40,0x77,0x61,0x69,0x74,0x46,0x3a,0x0a,0x40,0x6c,0x69,0x73,0x74,0x5b,0x08,0x6f,0x3a,0x15,0x52,0x50,0x47,0x3a,0x3a,0x4d,0x6f,0x76,0x65,0x43,0x6f,0x6d,0x6d,0x61,0x6e,0x64,0x07,0x3a,0x0a,0x40,0x63,0x6f,0x64,0x65,0x69,0x29,0x3a,0x10,0x40,0x70,0x61,0x72,0x61,0x6d,0x65,0x74,0x65,0x72,0x73,0x5b,0x00,0x6f,0x3b,0x0a,0x07,0x3b,0x0b,0x69,0x1e,0x3b,0x0c,0x5b,0x00,0x6f,0x3b,0x0a,0x07,0x3b,0x0b,0x69,0x00,0x3b,0x0c,0x5b,0x00))
  ShowMessageFace("fairys_fc1",0,0,2,5)
  ShowMessage("\\n<フェアリーズＡ>また、新しい人間が来ちゃった……♪")
  ShowMessageFace("fairys_fc2",1,0,2,6)
  ShowMessage("\\n<フェアリーズＣ>イタズラしちゃえ～♪")
  If(4,139,0)
   ShowMessageFace("fairys_fc1",3,0,2,7)
   ShowMessage("\\n<フェアリーズ>秘技！　イタズラ返しだよ～♪")
   0()
  EndIf()
  Battle(0,207,false,false)
  ChangeSwitch(2220,2220,0)
  0()
 PAGE   2
  // condition: switch 2220 is ON
  0()



EVENT   85
 PAGE   1
  0()



EVENT   86
 PAGE   1
  0()



EVENT   87
 PAGE   1
  0()



EVENT   88
 PAGE   1
  ShowMessageFace("elf_fc1",0,0,2,1)
  ShowMessage("\\n<エルフ>この町を、新たなエルフの都にするのよ……！")
  ShowMessageFace("",0,0,2,2)
  ShowMessage("\\n<兵士>こっちは大丈夫です！　他の救援をお願いします！")
  0()



EVENT   89
 PAGE   1
  ShowMessageFace("elf_fc1",0,0,2,1)
  ShowMessage("\\n<エルフ>この町を、新たなエルフの都にするのよ……！")
  ShowMessageFace("",0,0,2,2)
  ShowMessage("\\n<兵士>こっちは大丈夫です！　他の救援をお願いします！")
  0()



EVENT   90
 PAGE   1
  ShowMessageFace("",0,0,2,1)
  ShowMessage("\\n<兵士>コロシアムには踏み込ませんぞ！")
  ShowMessageFace("",0,0,2,2)
  ShowMessage("\\n<コロシアムの闘士>俺達の愛するコロシアムを守れー！")
  ShowMessageFace("",0,0,2,3)
  ShowMessage("コロシアム前は大乱戦だ！")
  ShowMessage("通る事はできそうにない……")
  0()



EVENT   91
 PAGE   1
  ShowMessageFace("alraune_fc1",0,0,2,1)
  ShowMessage("\\n<アルラウネ>お花を守りますよー！")
  ShowMessageFace("elf_fc1",0,0,2,2)
  ShowMessage("\\n<エルフ>なぜ、魔物が人に味方するの！？")
  0()



EVENT   92
 PAGE   1
  0()



EVENT   93
 PAGE   1
  0()



EVENT   94
 PAGE   1
  0()



EVENT   95
 PAGE   1
  0()



EVENT   96
 PAGE   1
  ShowMessageFace("",0,0,2,1)
  ShowMessage("\\n<青年>実際のところ、ただの人海戦術じゃないかなぁ……")
  0()



EVENT   97
 PAGE   1
  0()



EVENT   98
 PAGE   1
  // condition: variable 1052 >= 7
  If(1,1053,0,1,0)
   ShowMessageFace("tatunoko_k_fc1",2,0,2,1)
   ShowMessage("\\n<たつこ>むにゃむにゃ……")
   ShowMessageFace("tatunoko_k_fc1",1,0,2,2)
   ShowMessage("\\n<たつこ>海軍本部の物資保管庫で、新たな支給品がある気がするのです！")
   ShowMessage("海兵のカンなのです！")
   ChangeSelfSwitch("A",0)
   0()
  Else()
   TemporaryRemoveEvent()
   0()
  EndIf()
  0()
 PAGE   2
  // condition: self-switch A is ON
  0()



EVENT   99
 PAGE   1
  // condition: variable 1052 >= 8
  If(1,1053,0,2,0)
   ShowMessageFace("tatunoko_k_fc1",2,0,2,1)
   ShowMessage("\\n<たつこ>むにゃむにゃ……")
   ShowMessageFace("tatunoko_k_fc1",1,0,2,2)
   ShowMessage("\\n<たつこ>海軍本部の物資保管庫で、新たな支給品がある気がするのです！")
   ShowMessage("海兵のカンなのです！")
   ChangeSelfSwitch("A",0)
   0()
  Else()
   TemporaryRemoveEvent()
   0()
  EndIf()
  0()
 PAGE   2
  // condition: self-switch A is ON
  0()



EVENT   100
 PAGE   1
  0()



EVENT   101
 PAGE   1
  ShowMessageFace("taran_fc1",2,0,2,1)
  ShowMessage("\\n<クモ娘の裁縫屋>あんたの口も縫い付けてやるから！")
  ShowMessageFace("elf_fc1",0,0,2,2)
  ShowMessage("\\n<エルフ>魔物のくせに、人間に味方して……！")
  0()



EVENT   102
 PAGE   1
  // condition: variable 1001 >= 25
  If(1,1053,0,3,0)
   ShowMessageFace("tatunoko_k_fc1",2,0,2,1)
   ShowMessage("\\n<たつこ>むにゃむにゃ……")
   ShowMessageFace("tatunoko_k_fc1",1,0,2,2)
   ShowMessage("\\n<たつこ>海軍本部の物資保管庫で、新たな支給品がある気がするのです！")
   ShowMessage("海兵のカンなのです！")
   ChangeSelfSwitch("A",0)
   0()
  Else()
   TemporaryRemoveEvent()
   0()
  EndIf()
  0()
 PAGE   2
  // condition: self-switch A is ON
  0()



EVENT   103
 PAGE   1
  // condition: variable 1052 >= 30
  If(1,1053,0,6,0)
   ShowMessageFace("tatunoko_k_fc1",2,0,2,1)
   ShowMessage("\\n<たつこ>むにゃむにゃ……")
   ShowMessageFace("tatunoko_k_fc1",1,0,2,2)
   ShowMessage("\\n<たつこ>海軍本部の物資保管庫で、新たな支給品がある気がするのです！")
   ShowMessage("海兵のカンなのです！")
   ChangeSelfSwitch("A",0)
   0()
  Else()
   TemporaryRemoveEvent()
   0()
  EndIf()
  0()
 PAGE   2
  // condition: self-switch A is ON
  0()



EVENT   104
 PAGE   1
  0()



EVENT   105
 PAGE   1
  250(bytes(0x04,0x08,0x6f,0x3a,0x0c,0x52,0x50,0x47,0x3a,0x3a,0x53,0x45,0x08,0x3a,0x0a,0x40,0x6e,0x61,0x6d,0x65,0x49,0x22,0x09,0x4d,0x6f,0x76,0x65,0x06,0x3a,0x06,0x45,0x54,0x3a,0x0b,0x40,0x70,0x69,0x74,0x63,0x68,0x69,0x69,0x3a,0x0c,0x40,0x76,0x6f,0x6c,0x75,0x6d,0x65,0x69,0x55))
  TeleportPlayer(0,2,329,186,2,0)
  0()



EVENT   106
 PAGE   1
  250(bytes(0x04,0x08,0x6f,0x3a,0x0c,0x52,0x50,0x47,0x3a,0x3a,0x53,0x45,0x08,0x3a,0x0a,0x40,0x6e,0x61,0x6d,0x65,0x49,0x22,0x09,0x4d,0x6f,0x76,0x65,0x06,0x3a,0x06,0x45,0x54,0x3a,0x0b,0x40,0x70,0x69,0x74,0x63,0x68,0x69,0x69,0x3a,0x0c,0x40,0x76,0x6f,0x6c,0x75,0x6d,0x65,0x69,0x55))
  TeleportPlayer(0,2,329,186,2,0)
  0()

EVENT   112
 PAGE   1
  ShowMessageFace("",0,0,2,1)
  ShowMessage("\\n<衛兵>くっ、グランドノアから出て行け……！")
  ShowMessageFace("elf_fc1",0,0,2,2)
  ShowMessage("\\n<エルフ>さあ、観念しなさい！")
  0()



EVENT   113
 PAGE   1
  ShowMessageFace("elf_fc1",0,0,2,1)
  ShowMessage("\\n<エルフ>自然を汚す人間達……私達の怒りを知りなさい！")
  ShowMessageFace("",0,0,2,2)
  ShowMessage("\\n<ごろつき>た、助けてくれー！！")
  ShowMessageFace("ruka_fc1",0,0,2,3)
  ShowMessage("\\n<ルカ>やめろっ！")
  Battle(0,198,false,false)
  ChangeSwitch(2216,2216,0)
  ShowMessageFace("",0,0,2,4)
  ShowMessage("\\n<ごろつき>た、助かったよ……ほら、これを使ってくれ！")
  250(bytes(0x04,0x08,0x6f,0x3a,0x0c,0x52,0x50,0x47,0x3a,0x3a,0x53,0x45,0x08,0x3a,0x0a,0x40,0x6e,0x61,0x6d,0x65,0x49,0x22,0x0a,0x49,0x74,0x65,0x6d,0x31,0x06,0x3a,0x06,0x45,0x54,0x3a,0x0b,0x40,0x70,0x69,0x74,0x63,0x68,0x69,0x69,0x3a,0x0c,0x40,0x76,0x6f,0x6c,0x75,0x6d,0x65,0x69,0x55))
  ChangeInventory_Item(4,0,0,1)
  EndEventProcessing()
  0()
 PAGE   2
  // condition: switch 2216 is ON
  0()



EVENT   114
 PAGE   1
  ShowMessageFace("mino_fc1",0,0,2,1)
  ShowMessage("\\n<ミノタウロス娘>ミンタウロスなめんな、オラァ！")
  ShowMessageFace("amazoneself_fc1",0,0,2,2)
  ShowMessage("\\n<アマゾネスエルフ>相手にとって、不足はないわ！")
  0()



EVENT   115
 PAGE   1
  0()



EVENT   116
 PAGE   1
  ShowMessageFace("",0,0,2,1)
  ShowMessage("\\n<青年>もう、この世の終わりなのか……")
  0()



EVENT   117
 PAGE   1
  ShowMessageFace("",0,0,2,1)
  ShowMessage("\\n<おばさん>おお、こんな……信じられないよ……")
  355("actor_label_jump")
  EndEventProcessing()
  DefineLabel("216")
  ShowMessageFace("m_mino_fc1",2,0,2,2)
  ShowMessage("\\n<オデット>大丈夫かい？")
  ShowMessage("休んでおいておくれ……")
  EndEventProcessing()
  0()



EVENT   118
 PAGE   1
  0()



EVENT   119
 PAGE   1
  0()



EVENT   120
 PAGE   1
  0()



EVENT   121
 PAGE   1
  0()



EVENT   122
 PAGE   1
  0()



EVENT   123
 PAGE   1
  0()



EVENT   124
 PAGE   1
  0()



EVENT   125
 PAGE   1
  0()



EVENT   126
 PAGE   1
  0()



EVENT   127
 PAGE   1
  0()



EVENT   128
 PAGE   1
  0()



EVENT   129
 PAGE   1
  0()



EVENT   130
 PAGE   1
  0()



EVENT   131
 PAGE   1
  0()



EVENT   132
 PAGE   1
  0()



EVENT   133
 PAGE   1
  0()



EVENT   134
 PAGE   1
  0()



EVENT   135
 PAGE   1
  0()



EVENT   136
 PAGE   1
  0()



EVENT   137
 PAGE   1
  0()



EVENT   138
 PAGE   1
  0()



EVENT   139
 PAGE   1
  ScrollMap(8,6,5)
  Wait(60)
  ShowMessageFace("",0,0,2,1)
  ShowMessage("城門前で激闘が繰り広げられている！")
  ScrollMap(2,6,5)
  Wait(60)
  0()



EVENT   140
 PAGE   1
  0()



EVENT   141
 PAGE   1
  0()



EVENT   142
 PAGE   1
  ScrollMap(8,6,5)
  Wait(60)
  ShowMessageFace("",0,0,2,1)
  ShowMessage("城門前で激闘が繰り広げられている！")
  ScrollMap(2,6,5)
  Wait(60)
  0()



EVENT   143
 PAGE   1
  ScrollMap(8,6,5)
  Wait(60)
  ShowMessageFace("",0,0,2,1)
  ShowMessage("城門前で激闘が繰り広げられている！")
  ScrollMap(2,6,5)
  Wait(60)
  0()



EVENT   144
 PAGE   1
  ScrollMap(8,6,5)
  Wait(60)
  ShowMessageFace("",0,0,2,1)
  ShowMessage("城門前で激闘が繰り広げられている！")
  ScrollMap(2,6,5)
  Wait(60)
  0()



EVENT   145
 PAGE   1
  ShowMessageFace("",0,0,2,1)
  ShowMessage("\\n<兵士>む、無念……")
  0()



EVENT   146
 PAGE   1
  0()



EVENT   147
 PAGE   1
  ShowMessageFace("",0,0,2,1)
  ShowMessage("\\n<兵士>む、無念……")
  0()



EVENT   148
 PAGE   1
  ShowMessageFace("",0,0,2,1)
  ShowMessage("\\n<兵士>む、無念……")
  0()



EVENT   149
 PAGE   1
  0()



EVENT   150
 PAGE   1
  0()



EVENT   151
 PAGE   1
  0()



EVENT   152
 PAGE   1
  ScrollMap(8,6,5)
  Wait(60)
  ShowMessageFace("",0,0,2,1)
  ShowMessage("城門前で激闘が繰り広げられている！")
  ScrollMap(2,6,5)
  Wait(60)
  0()



EVENT   153
 PAGE   1
  ShowMessageFace("",0,0,2,1)
  ShowMessage("\\n<戦士>もう勃ちそうにない……")
  0()



EVENT   154
 PAGE   1
  ShowMessageFace("amazoneself_fc1",1,0,2,1)
  ShowMessage("\\n<アマゾネスエルフＡ>ほらほら……もっと出しな！")
  ShowMessageFace("amazoneself_fc1",1,0,2,2)
  ShowMessage("\\n<アマゾネスエルフＢ>腕も弱いけど、あっちもさっぱりだね……")
  ShowMessage("5回イったくらいで、もう役立たずかい？")
  ShowMessageFace("",0,0,2,3)
  ShowMessage("\\n<戦士>あぅぅぅ……もう、無理……")
  ShowMessageFace("ruka_fc1",0,0,2,4)
  ShowMessage("\\n<ルカ>やめろっ！")
  205(154,bytes(0x04,0x08,0x6f,0x3a,0x13,0x52,0x50,0x47,0x3a,0x3a,0x4d,0x6f,0x76,0x65,0x52,0x6f,0x75,0x74,0x65,0x09,0x3a,0x0c,0x40,0x72,0x65,0x70,0x65,0x61,0x74,0x46,0x3a,0x0f,0x40,0x73,0x6b,0x69,0x70,0x70,0x61,0x62,0x6c,0x65,0x46,0x3a,0x0a,0x40,0x77,0x61,0x69,0x74,0x46,0x3a,0x0a,0x40,0x6c,0x69,0x73,0x74,0x5b,0x08,0x6f,0x3a,0x15,0x52,0x50,0x47,0x3a,0x3a,0x4d,0x6f,0x76,0x65,0x43,0x6f,0x6d,0x6d,0x61,0x6e,0x64,0x07,0x3a,0x0a,0x40,0x63,0x6f,0x64,0x65,0x69,0x29,0x3a,0x10,0x40,0x70,0x61,0x72,0x61,0x6d,0x65,0x74,0x65,0x72,0x73,0x5b,0x00,0x6f,0x3b,0x0a,0x07,0x3b,0x0b,0x69,0x1e,0x3b,0x0c,0x5b,0x00,0x6f,0x3b,0x0a,0x07,0x3b,0x0b,0x69,0x00,0x3b,0x0c,0x5b,0x00))
  205(155,bytes(0x04,0x08,0x6f,0x3a,0x13,0x52,0x50,0x47,0x3a,0x3a,0x4d,0x6f,0x76,0x65,0x52,0x6f,0x75,0x74,0x65,0x09,0x3a,0x0c,0x40,0x72,0x65,0x70,0x65,0x61,0x74,0x46,0x3a,0x0f,0x40,0x73,0x6b,0x69,0x70,0x70,0x61,0x62,0x6c,0x65,0x46,0x3a,0x0a,0x40,0x77,0x61,0x69,0x74,0x54,0x3a,0x0a,0x40,0x6c,0x69,0x73,0x74,0x5b,0x08,0x6f,0x3a,0x15,0x52,0x50,0x47,0x3a,0x3a,0x4d,0x6f,0x76,0x65,0x43,0x6f,0x6d,0x6d,0x61,0x6e,0x64,0x07,0x3a,0x0a,0x40,0x63,0x6f,0x64,0x65,0x69,0x29,0x3a,0x10,0x40,0x70,0x61,0x72,0x61,0x6d,0x65,0x74,0x65,0x72,0x73,0x5b,0x00,0x6f,0x3b,0x0a,0x07,0x3b,0x0b,0x69,0x1e,0x3b,0x0c,0x5b,0x00,0x6f,0x3b,0x0a,0x07,0x3b,0x0b,0x69,0x00,0x3b,0x0c,0x5b,0x00))
  ShowMessageFace("amazoneself_fc1",1,0,2,5)
  ShowMessage("\\n<アマゾネスエルフＡ>へぇ……今度は、あんたが相手をしてくれるのかい……？")
  ShowMessageFace("amazoneself_fc1",1,0,2,6)
  ShowMessage("\\n<アマゾネスエルフＢ>さあ、たっぷり犯してやるよ！")
  If(4,238,0)
   ShowMessageFace("dorothy_fc1",1,0,2,7)
   ShowMessage("\\n<ドローシー>あんた達、溶かしてあげるわ……")
   0()
  EndIf()
  Battle(0,778,false,false)
  ChangeSwitch(2219,2219,0)
  0()
 PAGE   2
  // condition: switch 2219 is ON
  0()



EVENT   155
 PAGE   1
  ShowMessageFace("amazoneself_fc1",1,0,2,1)
  ShowMessage("\\n<アマゾネスエルフＡ>ほらほら……もっと出しな！")
  ShowMessageFace("amazoneself_fc1",1,0,2,2)
  ShowMessage("\\n<アマゾネスエルフＢ>腕も弱いけど、あっちもさっぱりだね……")
  ShowMessage("5回イったくらいで、もう役立たずかい？")
  ShowMessageFace("",0,0,2,3)
  ShowMessage("\\n<戦士>あぅぅぅ……もう、無理……")
  ShowMessageFace("ruka_fc1",0,0,2,4)
  ShowMessage("\\n<ルカ>やめろっ！")
  205(154,bytes(0x04,0x08,0x6f,0x3a,0x13,0x52,0x50,0x47,0x3a,0x3a,0x4d,0x6f,0x76,0x65,0x52,0x6f,0x75,0x74,0x65,0x09,0x3a,0x0c,0x40,0x72,0x65,0x70,0x65,0x61,0x74,0x46,0x3a,0x0f,0x40,0x73,0x6b,0x69,0x70,0x70,0x61,0x62,0x6c,0x65,0x46,0x3a,0x0a,0x40,0x77,0x61,0x69,0x74,0x46,0x3a,0x0a,0x40,0x6c,0x69,0x73,0x74,0x5b,0x08,0x6f,0x3a,0x15,0x52,0x50,0x47,0x3a,0x3a,0x4d,0x6f,0x76,0x65,0x43,0x6f,0x6d,0x6d,0x61,0x6e,0x64,0x07,0x3a,0x0a,0x40,0x63,0x6f,0x64,0x65,0x69,0x29,0x3a,0x10,0x40,0x70,0x61,0x72,0x61,0x6d,0x65,0x74,0x65,0x72,0x73,0x5b,0x00,0x6f,0x3b,0x0a,0x07,0x3b,0x0b,0x69,0x1e,0x3b,0x0c,0x5b,0x00,0x6f,0x3b,0x0a,0x07,0x3b,0x0b,0x69,0x00,0x3b,0x0c,0x5b,0x00))
  205(155,bytes(0x04,0x08,0x6f,0x3a,0x13,0x52,0x50,0x47,0x3a,0x3a,0x4d,0x6f,0x76,0x65,0x52,0x6f,0x75,0x74,0x65,0x09,0x3a,0x0c,0x40,0x72,0x65,0x70,0x65,0x61,0x74,0x46,0x3a,0x0f,0x40,0x73,0x6b,0x69,0x70,0x70,0x61,0x62,0x6c,0x65,0x46,0x3a,0x0a,0x40,0x77,0x61,0x69,0x74,0x54,0x3a,0x0a,0x40,0x6c,0x69,0x73,0x74,0x5b,0x08,0x6f,0x3a,0x15,0x52,0x50,0x47,0x3a,0x3a,0x4d,0x6f,0x76,0x65,0x43,0x6f,0x6d,0x6d,0x61,0x6e,0x64,0x07,0x3a,0x0a,0x40,0x63,0x6f,0x64,0x65,0x69,0x29,0x3a,0x10,0x40,0x70,0x61,0x72,0x61,0x6d,0x65,0x74,0x65,0x72,0x73,0x5b,0x00,0x6f,0x3b,0x0a,0x07,0x3b,0x0b,0x69,0x1e,0x3b,0x0c,0x5b,0x00,0x6f,0x3b,0x0a,0x07,0x3b,0x0b,0x69,0x00,0x3b,0x0c,0x5b,0x00))
  ShowMessageFace("amazoneself_fc1",1,0,2,5)
  ShowMessage("\\n<アマゾネスエルフＡ>へぇ……今度は、あんたが相手をしてくれるのかい……？")
  ShowMessageFace("amazoneself_fc1",1,0,2,6)
  ShowMessage("\\n<アマゾネスエルフＢ>さあ、たっぷり犯してやるよ！")
  If(4,238,0)
   ShowMessageFace("dorothy_fc1",1,0,2,7)
   ShowMessage("\\n<ドローシー>あんた達、溶かしてあげるわ……")
   0()
  EndIf()
  Battle(0,778,false,false)
  ChangeSwitch(2219,2219,0)
  0()
 PAGE   2
  // condition: switch 2219 is ON
  0()



EVENT   156
 PAGE   1
  ShowMessageFace("fairys_fc1",0,0,2,1)
  ShowMessage("\\n<フェアリーズＡ>あははっ、いたずらしちゃえ～♪")
  ShowMessageFace("fairys_fc3",1,0,2,2)
  ShowMessage("\\n<フェアリーズＢ>もっと白いの出しちゃえ～♪")
  ShowMessageFace("",0,0,2,3)
  ShowMessage("\\n<男>やめて、やめて……あぁぁぁぁ――っ！！")
  ShowMessageFace("ruka_fc1",0,0,2,4)
  ShowMessage("\\n<ルカ>やめろっ！")
  205(69,bytes(0x04,0x08,0x6f,0x3a,0x13,0x52,0x50,0x47,0x3a,0x3a,0x4d,0x6f,0x76,0x65,0x52,0x6f,0x75,0x74,0x65,0x09,0x3a,0x0c,0x40,0x72,0x65,0x70,0x65,0x61,0x74,0x46,0x3a,0x0f,0x40,0x73,0x6b,0x69,0x70,0x70,0x61,0x62,0x6c,0x65,0x46,0x3a,0x0a,0x40,0x77,0x61,0x69,0x74,0x46,0x3a,0x0a,0x40,0x6c,0x69,0x73,0x74,0x5b,0x08,0x6f,0x3a,0x15,0x52,0x50,0x47,0x3a,0x3a,0x4d,0x6f,0x76,0x65,0x43,0x6f,0x6d,0x6d,0x61,0x6e,0x64,0x07,0x3a,0x0a,0x40,0x63,0x6f,0x64,0x65,0x69,0x29,0x3a,0x10,0x40,0x70,0x61,0x72,0x61,0x6d,0x65,0x74,0x65,0x72,0x73,0x5b,0x00,0x6f,0x3b,0x0a,0x07,0x3b,0x0b,0x69,0x1e,0x3b,0x0c,0x5b,0x00,0x6f,0x3b,0x0a,0x07,0x3b,0x0b,0x69,0x00,0x3b,0x0c,0x5b,0x00))
  205(84,bytes(0x04,0x08,0x6f,0x3a,0x13,0x52,0x50,0x47,0x3a,0x3a,0x4d,0x6f,0x76,0x65,0x52,0x6f,0x75,0x74,0x65,0x09,0x3a,0x0c,0x40,0x72,0x65,0x70,0x65,0x61,0x74,0x46,0x3a,0x0f,0x40,0x73,0x6b,0x69,0x70,0x70,0x61,0x62,0x6c,0x65,0x46,0x3a,0x0a,0x40,0x77,0x61,0x69,0x74,0x46,0x3a,0x0a,0x40,0x6c,0x69,0x73,0x74,0x5b,0x08,0x6f,0x3a,0x15,0x52,0x50,0x47,0x3a,0x3a,0x4d,0x6f,0x76,0x65,0x43,0x6f,0x6d,0x6d,0x61,0x6e,0x64,0x07,0x3a,0x0a,0x40,0x63,0x6f,0x64,0x65,0x69,0x29,0x3a,0x10,0x40,0x70,0x61,0x72,0x61,0x6d,0x65,0x74,0x65,0x72,0x73,0x5b,0x00,0x6f,0x3b,0x0a,0x07,0x3b,0x0b,0x69,0x1e,0x3b,0x0c,0x5b,0x00,0x6f,0x3b,0x0a,0x07,0x3b,0x0b,0x69,0x00,0x3b,0x0c,0x5b,0x00))
  205(156,bytes(0x04,0x08,0x6f,0x3a,0x13,0x52,0x50,0x47,0x3a,0x3a,0x4d,0x6f,0x76,0x65,0x52,0x6f,0x75,0x74,0x65,0x09,0x3a,0x0c,0x40,0x72,0x65,0x70,0x65,0x61,0x74,0x46,0x3a,0x0f,0x40,0x73,0x6b,0x69,0x70,0x70,0x61,0x62,0x6c,0x65,0x46,0x3a,0x0a,0x40,0x77,0x61,0x69,0x74,0x46,0x3a,0x0a,0x40,0x6c,0x69,0x73,0x74,0x5b,0x08,0x6f,0x3a,0x15,0x52,0x50,0x47,0x3a,0x3a,0x4d,0x6f,0x76,0x65,0x43,0x6f,0x6d,0x6d,0x61,0x6e,0x64,0x07,0x3a,0x0a,0x40,0x63,0x6f,0x64,0x65,0x69,0x29,0x3a,0x10,0x40,0x70,0x61,0x72,0x61,0x6d,0x65,0x74,0x65,0x72,0x73,0x5b,0x00,0x6f,0x3b,0x0a,0x07,0x3b,0x0b,0x69,0x1e,0x3b,0x0c,0x5b,0x00,0x6f,0x3b,0x0a,0x07,0x3b,0x0b,0x69,0x00,0x3b,0x0c,0x5b,0x00))
  ShowMessageFace("fairys_fc1",0,0,2,5)
  ShowMessage("\\n<フェアリーズＡ>また、新しい人間が来ちゃった……♪")
  ShowMessageFace("fairys_fc2",1,0,2,6)
  ShowMessage("\\n<フェアリーズＣ>イタズラしちゃえ～♪")
  If(4,139,0)
   ShowMessageFace("fairys_fc1",3,0,2,7)
   ShowMessage("\\n<フェアリーズ>秘技！　イタズラ返しだよ～♪")
   0()
  EndIf()
  Battle(0,207,false,false)
  ChangeSwitch(2220,2220,0)
  0()
 PAGE   2
  // condition: switch 2220 is ON
  0()



EVENT   157
 PAGE   1
  ShowMessageFace("",0,0,2,1)
  ShowMessage("\\n<兵士>路地に人々が連れ込まれ……無理矢理に……")
  0()



EVENT   158
 PAGE   1
  ShowMessageFace("",0,0,2,1)
  ShowMessage("\\n<中年>はぅぅぅぅぅ……")
  0()



EVENT   159
 PAGE   1
  0()



EVENT   160
 PAGE   1
  0()



EVENT   161
 PAGE   1
  ShowMessageFace("",0,0,2,1)
  ShowMessage("\\n<兵士>コロシアムには踏み込ませんぞ！")
  ShowMessageFace("",0,0,2,2)
  ShowMessage("\\n<コロシアムの闘士>俺達の愛するコロシアムを守れー！")
  ShowMessageFace("",0,0,2,3)
  ShowMessage("コロシアム前は大乱戦だ！")
  ShowMessage("通る事はできそうにない……")
  0()



EVENT   162
 PAGE   1
  0()



EVENT   163
 PAGE   1
  0()



EVENT   164
 PAGE   1
  0()



EVENT   165
 PAGE   1
  0()



EVENT   166
 PAGE   1
  0()



EVENT   167
 PAGE   1
  0()



EVENT   168
 PAGE   1
  0()



EVENT   169
 PAGE   1
  0()



EVENT   170
 PAGE   1
  0()



EVENT   171
 PAGE   1
  0()



EVENT   172
 PAGE   1
  0()



EVENT   173
 PAGE   1
  0()



EVENT   174
 PAGE   1
  0()



EVENT   175
 PAGE   1
  0()



EVENT   176
 PAGE   1
  0()



EVENT   177
 PAGE   1
  0()



EVENT   178
 PAGE   1
  0()



EVENT   179
 PAGE   1
  0()



EVENT   180
 PAGE   1
  0()



EVENT   181
 PAGE   1
  0()



EVENT   182
 PAGE   1
  0()



EVENT   183
 PAGE   1
  0()



EVENT   184
 PAGE   1
  0()



EVENT   185
 PAGE   1
  0()



EVENT   186
 PAGE   1
  ShowMessageFace("",0,0,2,1)
  ShowMessage("\\n<兵士>クィーンフェアリーが敵を率いてる……")
  ShowMessage("間違いない、女王と呼ばれたんだ……")
  If(0,4,0)
   ShowMessageFace("alice_fc5",2,0,2,2)
   ShowMessage("\\n<アリス>クィーンフェアリーか、敵軍の統率者に違いない……")
   ShowMessage("さあ、奴を見つけ出して討つぞ！")
   0()
  EndIf()
  If(0,5,0)
   ShowMessageFace("iriasu_fc4",7,0,2,3)
   ShowMessage("\\n<イリアス>敵の統率者は、クィーンフェアリーですね……")
   ShowMessage("見つけ出して、地獄に送るのです！")
   0()
  EndIf()
  If(4,97,0)
   ShowMessageFace("fairy_fc1",2,0,2,4)
   ShowMessage("\\n<フェル>女王様と、戦う事になるのかなぁ……")
   0()
  EndIf()
  0()



EVENT   187
 PAGE   1
  ShowMessageFace("taran_fc1",2,0,2,1)
  ShowMessage("\\n<クモ娘の裁縫屋>あんたの口も縫い付けてやるから！")
  ShowMessageFace("elf_fc1",0,0,2,2)
  ShowMessage("\\n<エルフ>魔物のくせに、人間に味方して……！")
  0()



EVENT   188
 PAGE   1
  ShowMessageFace("",0,0,2,1)
  ShowMessage("\\n<兵士>……………………")
  0()



EVENT   189
 PAGE   1
  ShowMessageFace("",0,0,2,1)
  ShowMessage("\\n<戦士>……………………")
  0()



EVENT   190
 PAGE   1
  ShowMessageFace("trickfairy_fc1",0,0,2,1)
  ShowMessage("\\n<トリックフェアリー>あははっ、あたしと遊ぼうよ～♪")
  If(4,295,0)
   ShowMessageFace("cassandra_fc1",5,0,2,2)
   ShowMessage("\\n<カサンドラ>ふふっ、遊びましょうか……")
   0()
  EndIf()
  Battle(0,779,false,false)
  TemporaryRemoveEvent()
  0()



EVENT   191
 PAGE   1
  ShowMessageFace("carbuncle_fc1",0,0,2,1)
  ShowMessage("\\n<カーバンクル娘>聖職者の精液……")
  ShowMessage("不味いと評判ですが、本当にそうなのか試してみましょう。")
  ShowMessageFace("",0,0,2,2)
  ShowMessage("\\n<神父>イ、イリアス様……！　お助けを……！")
  ShowMessageFace("ruka_fc1",0,0,2,3)
  ShowMessage("\\n<ルカ>やめろっ！")
  If(4,288,0)
   ShowMessageFace("d_succubus_fc1",0,0,2,4)
   ShowMessage("\\n<ナターシャ>私達が相手をしましょう……")
   0()
  EndIf()
  Battle(0,780,false,false)
  ChangeSwitch(2221,2221,0)
  ShowMessageFace("",0,0,2,5)
  ShowMessage("\\n<神父>助かりました、これを差し上げましょう……")
  250(bytes(0x04,0x08,0x6f,0x3a,0x0c,0x52,0x50,0x47,0x3a,0x3a,0x53,0x45,0x08,0x3a,0x0a,0x40,0x6e,0x61,0x6d,0x65,0x49,0x22,0x0a,0x49,0x74,0x65,0x6d,0x31,0x06,0x3a,0x06,0x45,0x54,0x3a,0x0b,0x40,0x70,0x69,0x74,0x63,0x68,0x69,0x69,0x3a,0x0c,0x40,0x76,0x6f,0x6c,0x75,0x6d,0x65,0x69,0x55))
  ChangeInventory_Item(25,0,0,1)
  EndEventProcessing()
  0()
 PAGE   2
  // condition: switch 2221 is ON
  0()



EVENT   192
 PAGE   1
  If(0,2221,1)
   ShowMessageFace("carbuncle_fc1",0,0,2,1)
   ShowMessage("\\n<カーバンクル娘>聖職者の精液……")
   ShowMessage("不味いと評判ですが、本当にそうなのか試してみましょう。")
   ShowMessageFace("",0,0,2,2)
   ShowMessage("\\n<神父>イ、イリアス様……！　お助けを……！")
   0()
  EndIf()
  If(0,2221,0)
   ShowMessageFace("",0,0,2,3)
   ShowMessage("\\n<神父>ああ、イリアス様……")
   ShowMessage("この町をお救い下さい……")
   0()
  EndIf()
  0()



EVENT   193
 PAGE   1
  ShowMessageFace("",0,0,2,1)
  ShowMessage("\\n<宿屋のおかみ>怪我人は、早く中に入りな！")
  221()
  250(bytes(0x04,0x08,0x6f,0x3a,0x0c,0x52,0x50,0x47,0x3a,0x3a,0x53,0x45,0x08,0x3a,0x0a,0x40,0x6e,0x61,0x6d,0x65,0x49,0x22,0x0a,0x48,0x65,0x61,0x6c,0x37,0x06,0x3a,0x06,0x45,0x54,0x3a,0x0b,0x40,0x70,0x69,0x74,0x63,0x68,0x69,0x69,0x3a,0x0c,0x40,0x76,0x6f,0x6c,0x75,0x6d,0x65,0x69,0x55))
  314(0,0)
  ShowMessageFace("",0,0,2,2)
  ShowMessage("ルカ達は応急治療を受けた！")
  Wait(60)
  222()
  0()



EVENT   194
 PAGE   1
  ShowMessageFace("",0,0,2,1)
  ShowMessage("\\n<老人>我が国が蹂躙される有様を見ようなど……")
  0()



EVENT   195
 PAGE   1
  ShowMessageFace("",0,0,2,1)
  ShowMessage("\\n<衛兵>おのれ、侵略者め……！")
  ShowMessageFace("",0,0,2,2)
  ShowMessage("\\n<エルフ>そっちこそ、自然を散々に破壊して……！")
  0()



EVENT   196
 PAGE   1
  ShowMessageFace("",0,0,2,1)
  ShowMessage("\\n<衛兵>おのれ、侵略者め……！")
  ShowMessageFace("",0,0,2,2)
  ShowMessage("\\n<エルフ>そっちこそ、自然を散々に破壊して……！")
  0()



EVENT   197
 PAGE   1
  ShowMessageFace("",0,0,2,1)
  ShowMessage("\\n<青年>あぁ……うぅぅ……")
  0()


